<svg width="120" height="120" viewBox="0 0 120 120" fill="none" xmlns="http://www.w3.org/2000/svg">
<path d="M22.5794 83.0938V86.4385L18.1753 118.694C18.0788 119.384 18.6148 120 19.3126 120H21.7198C22.2293 120 22.6784 119.664 22.8208 119.174L32.1697 86.4385V83.0938H22.5794Z" fill="#6D3D22"/>
<path d="M101.83 118.694L97.4263 86.4385L98.0299 83.0938H87.8359V86.4385L97.1848 119.174C97.3273 119.664 97.7764 120 98.2858 120H100.693C101.391 120 101.927 119.384 101.83 118.694Z" fill="#6D3D22"/>
<path d="M24.8615 93.8452C24.8615 91.9979 26.359 90.5004 28.2063 90.5004H31.0095L32.1697 86.4385V83.0938H22.5794V86.4385L18.1753 118.694C18.0788 119.384 18.6148 120 19.3126 120H21.2905L24.8615 93.8452Z" fill="#662417"/>
<path d="M94.0289 93.8452C94.0289 91.9979 95.5263 90.5004 97.3736 90.5004H97.9811L97.4263 86.4385L98.0299 83.0938H87.8359V86.4385L97.1848 119.174C97.3273 119.664 97.7764 120 98.2858 120H100.693C100.973 120 101.225 119.9 101.423 119.737L94.0289 93.8452Z" fill="#662417"/>
<path d="M89.579 19.5828L97.4993 11.904C98.2065 11.1968 98.2065 10.0502 97.4993 9.34324C96.7921 8.63603 95.6454 8.63603 94.9385 9.34324L89.579 14.4612V12.0723C89.579 11.7391 89.487 11.4125 89.3132 11.128L85.45 5.81616C84.9287 4.96263 83.8142 4.69366 82.9607 5.21519C82.1072 5.73672 81.8382 6.85125 82.3597 7.70453L85.9573 12.5818V18.8322C85.9573 18.8327 85.9573 18.8329 85.9573 18.8334V20.3758V35.7343C85.9573 36.7344 86.7681 37.5452 87.7682 37.5452C88.7683 37.5452 89.579 36.7344 89.579 35.7343V30.2324L97.2059 23.3021C97.9406 22.6236 97.9863 21.478 97.3078 20.7432C96.6293 20.0085 95.4834 19.9629 94.7489 20.6413L89.579 25.303V20.3758V19.5828Z" fill="#915922"/>
<path d="M100.758 35.1962C102.613 37.8014 103.706 40.9861 103.706 44.4267C103.706 53.2251 96.5739 60.3624 87.7731 60.3624C87.691 60.3624 87.6065 60.3624 87.522 60.3599C79.0399 60.232 72.0765 53.3555 71.8423 44.8758C71.7409 41.2638 72.8492 37.9149 74.7832 35.1962C75.085 34.7736 75.5751 34.5273 76.0918 34.5273H87.7707H99.4496C99.9663 34.5273 100.456 34.776 100.758 35.1962Z" fill="#FF7400"/>
<path d="M80.7165 43.8147C80.62 40.3738 81.6227 37.1731 83.3896 34.5273H76.0918C75.5751 34.5273 75.085 34.7736 74.7832 35.1962C72.8492 37.9149 71.7409 41.2638 71.8423 44.8758C72.0765 53.3555 79.0399 60.232 87.522 60.3599C87.6065 60.3624 87.691 60.3624 87.7731 60.3624C89.9949 60.3624 92.1098 59.9063 94.0312 59.0846C86.6555 57.853 80.9285 51.491 80.7165 43.8147Z" fill="#FF5500"/>
<path d="M59.8804 0H21.7266C20.0606 0 18.7109 1.3497 18.7109 3.01569V57.3465C18.7109 59.0125 20.0606 60.3622 21.7266 60.3622H59.8804C61.5463 60.3622 62.896 59.0125 62.896 57.3465V3.01569C62.896 1.3497 61.5463 0 59.8804 0Z" fill="#00AA95"/>
<path d="M61.4906 51.4283C42.7983 51.4283 27.6453 36.2752 27.6453 17.583V0H21.7266C20.0611 0 18.7109 1.35018 18.7109 3.01569V57.3465C18.7109 59.012 20.0611 60.3622 21.7266 60.3622H59.8804C61.5459 60.3622 62.896 59.012 62.896 57.3465V51.4283H61.4906V51.4283Z" fill="#079B6D"/>
<path d="M56.1405 7.63382V52.7289C56.1405 53.2111 55.7496 53.602 55.2675 53.602H26.3496C25.8675 53.602 25.4766 53.2111 25.4766 52.7289V7.63382C25.4766 7.15165 25.8675 6.76074 26.3496 6.76074H55.2677C55.7496 6.76074 56.1405 7.15165 56.1405 7.63382Z" fill="#F5DCB4"/>
<path d="M29.3397 21.8634C29.3397 15.9228 34.1557 11.1068 40.0963 11.1068H56.1405V7.63382C56.1405 7.15165 55.7496 6.76074 55.2675 6.76074H26.3496C25.8675 6.76074 25.4766 7.15165 25.4766 7.63382V52.7289C25.4766 53.2111 25.8675 53.602 26.3496 53.602H29.3397V21.8634Z" fill="#EFD2A8"/>
<path d="M105.238 60.3623H87.7697H59.8824H21.7286H14.7628C13.0775 60.3623 11.7109 61.7289 11.7109 63.4142V83.3868C11.7109 85.0722 13.0775 86.4388 14.7628 86.4388H22.5761H32.1665H87.8349H97.4252H105.238C106.924 86.4388 108.29 85.0722 108.29 83.3868V63.4142C108.29 61.7289 106.924 60.3623 105.238 60.3623Z" fill="#915922"/>
<path d="M107.266 78.3502H97.6754H42.007H32.4166C26.4159 78.3502 21.5514 73.4858 21.5514 67.485V60.3623H14.7628C13.0773 60.3623 11.7109 61.7287 11.7109 63.4142V83.3868C11.7109 85.0724 13.0773 86.4388 14.7628 86.4388H22.5761H32.1665H87.8349H97.4252H105.238C106.924 86.4388 108.29 85.0724 108.29 83.3868V78.3502H107.266Z" fill="#8E4A1B"/>
<path d="M102.016 67.2392V79.561C102.016 79.892 101.748 80.1605 101.417 80.1605H18.5917C18.2607 80.1605 17.9922 79.892 17.9922 79.561V67.2392C17.9922 66.9081 18.2607 66.6396 18.5917 66.6396H101.417C101.748 66.6396 102.016 66.9081 102.016 67.2392Z" fill="#E2B17D"/>
<path d="M32.2575 75.2111C27.5236 75.2111 23.686 71.3735 23.686 66.6396H18.5917C18.2607 66.6396 17.9922 66.9081 17.9922 67.2392V79.561C17.9922 79.892 18.2607 80.1605 18.5917 80.1605H101.417C101.748 80.1605 102.016 79.892 102.016 79.561V75.2111H32.2575Z" fill="#DD9962"/>
<path d="M63.8627 75.2112H56.2571C55.6629 75.2112 55.1063 74.9195 54.7681 74.4311L53.6815 72.8616C53.1122 72.0393 53.3174 70.9112 54.1396 70.3419C54.9617 69.7725 56.09 69.9778 56.6593 70.7999L57.2057 71.5892H62.797L63.185 70.8909C63.6705 70.0166 64.7732 69.7013 65.6473 70.1873C66.5215 70.6731 66.8366 71.7756 66.3508 72.6496L65.4454 74.2794C65.1262 74.8545 64.5204 75.2112 63.8627 75.2112Z" fill="#DDDDDD"/>
<path d="M103.147 18.727C103.424 18.8125 103.591 19.0907 103.536 19.3753C103.266 20.7707 102.368 24.7043 100.684 25.7141C98.6247 26.9479 95.9566 26.2791 94.7204 24.2219C93.4866 22.1624 94.1554 19.4944 96.2126 18.2581C97.8984 17.2484 101.79 18.3086 103.147 18.727Z" fill="#85B52A"/>
<path d="M103.147 4.96434C103.424 5.04981 103.591 5.32796 103.536 5.61263C103.266 7.00796 102.368 10.9416 100.684 11.9514C98.6247 13.1852 95.9566 12.5164 94.7204 10.4592C93.4866 8.39967 94.1554 5.73166 96.2126 4.49545C97.8984 3.48571 101.79 4.54591 103.147 4.96434Z" fill="#85B52A"/>
<path d="M83.6698 1.59799C85.7269 2.8342 86.3957 5.50221 85.1619 7.56177C83.9257 9.61891 81.2577 10.2877 79.1982 9.05392C77.5145 8.04418 76.6168 4.1105 76.3464 2.71517C76.2914 2.4305 76.4582 2.15211 76.7351 2.06688C78.093 1.64845 81.9842 0.588247 83.6698 1.59799Z" fill="#85B52A"/>
</svg>
