<svg width="120" height="120" viewBox="0 0 120 120" fill="none" xmlns="http://www.w3.org/2000/svg">
<g clip-path="url(#clip0_4652_13555)">
<path d="M115.865 115.863H4.14062V13.4486C4.14062 12.8772 4.60375 12.4141 5.17516 12.4141H114.83C115.402 12.4141 115.865 12.8772 115.865 13.4486V115.863Z" fill="#FFD782"/>
<path d="M115.857 97.2422H4.13281V113.794H115.857V97.2422Z" fill="#FFAF5F"/>
<path d="M115.858 49.4767C115.434 49.5821 114.998 49.6548 114.542 49.6548C111.529 49.6548 109.087 47.2126 109.087 44.2002C109.087 47.2124 106.645 49.6548 103.632 49.6548C100.62 49.6548 98.1779 47.2126 98.1779 44.2002C98.1779 47.2124 95.7359 49.6548 92.7233 49.6548C89.7109 49.6548 87.2687 47.2126 87.2687 44.2002C87.2687 47.2124 84.8265 49.6548 81.8141 49.6548C78.8016 49.6548 76.3595 47.2126 76.3595 44.2002C76.3595 47.2124 73.9173 49.6548 70.9048 49.6548C67.8924 49.6548 65.4502 47.2126 65.4502 44.2002C65.4502 47.2124 63.0083 49.6548 59.9956 49.6548C56.983 49.6548 54.541 47.2126 54.541 44.2002C54.541 47.2124 52.0988 49.6548 49.0864 49.6548C46.074 49.6548 43.6318 47.2126 43.6318 44.2002C43.6318 47.2124 41.1898 49.6548 38.1772 49.6548C35.1648 49.6548 32.7226 47.2126 32.7226 44.2002C32.7226 47.2124 30.2804 49.6548 27.268 49.6548C24.2555 49.6548 21.8134 47.2126 21.8134 44.2002C21.8134 47.2124 19.3712 49.6548 16.3587 49.6548C13.3463 49.6548 10.9041 47.2126 10.9041 44.2002C10.9041 47.2124 8.46219 49.6548 5.44953 49.6548C4.99297 49.6548 4.5568 49.5821 4.13281 49.4767V53.6598C4.56734 53.72 4.99859 53.7929 5.44953 53.7929C7.4743 53.7929 9.35445 53.1625 10.9041 52.0874C12.4543 53.1625 14.3342 53.7927 16.3592 53.7927C18.384 53.7927 20.2641 53.1622 21.8138 52.0871C23.3635 53.1622 25.2437 53.7927 27.2684 53.7927C29.2932 53.7927 31.1734 53.1622 32.723 52.0871C34.2727 53.1622 36.1529 53.7927 38.1777 53.7927C40.2024 53.7927 42.0826 53.1622 43.6323 52.0871C45.1819 53.1622 47.0621 53.7927 49.0869 53.7927C51.1116 53.7927 52.9918 53.1622 54.5415 52.0871C56.0909 53.1625 57.9711 53.7927 59.9959 53.7927C62.0206 53.7927 63.9008 53.1622 65.4505 52.0871C67.0002 53.1622 68.8803 53.7927 70.9051 53.7927C72.9298 53.7927 74.81 53.1622 76.3597 52.0871C77.9094 53.1622 79.7895 53.7927 81.8143 53.7927C83.8391 53.7927 85.7192 53.1622 87.2689 52.0871C88.8186 53.1622 90.6987 53.7927 92.7235 53.7927C94.7483 53.7927 96.6284 53.1622 98.1781 52.0871C99.7278 53.1622 101.608 53.7927 103.633 53.7927C105.658 53.7927 107.538 53.1622 109.087 52.0871C110.637 53.1622 112.517 53.7927 114.542 53.7927C114.993 53.7927 115.424 53.72 115.859 53.6596V49.4767H115.858Z" fill="#FFAF5F"/>
<path d="M72.4148 62.0693H14.4844V103.448H72.4148V62.0693Z" fill="#B4E1FA"/>
<path d="M105.523 62.0693H80.6953V103.448H105.523V62.0693Z" fill="#B4E1FA"/>
<path d="M105.515 62.0693H80.6875V68.2763H105.515V62.0693Z" fill="#A0D2F0"/>
<path d="M105.519 81.3797L91.0363 62.0693H86.8984L105.519 86.8969V81.3797Z" fill="#DAF0FD"/>
<path d="M82.7563 62.0693H80.6875V70.3451L105.515 103.448V92.4139L82.7563 62.0693Z" fill="#A0D2F0"/>
<path d="M95.6915 68.2761L91.0363 62.0693H86.8984L91.5536 68.2761H95.6915Z" fill="#B4E1FA"/>
<path d="M66.2037 103.448H62.0658L31.0312 62.0693H35.1691L66.2037 103.448Z" fill="#DAF0FD"/>
<path d="M57.9353 103.448H49.6595L18.625 62.0693H26.901L57.9353 103.448Z" fill="#A0D2F0"/>
<path d="M72.4148 62.0693H14.4844V68.2763H72.4148V62.0693Z" fill="#A0D2F0"/>
<path d="M39.8243 68.2761L35.1691 62.0693H31.0312L35.6864 68.2761H39.8243Z" fill="#B4E1FA"/>
<path d="M49.0874 49.6554C46.075 49.6554 43.6328 47.2132 43.6328 44.2008V39.3105H54.542V44.2008C54.542 47.2132 52.0998 49.6554 49.0874 49.6554Z" fill="#D2555A"/>
<path d="M70.9077 49.6554C67.8953 49.6554 65.4531 47.2132 65.4531 44.2008V39.3105H76.3623V44.2008C76.3621 47.2132 73.9202 49.6554 70.9077 49.6554Z" fill="#D2555A"/>
<path d="M27.2749 49.6554C24.2625 49.6554 21.8203 47.2132 21.8203 44.2008V39.3105H32.7295V44.2008C32.7293 47.2132 30.2873 49.6554 27.2749 49.6554Z" fill="#D2555A"/>
<path d="M5.45461 49.6554C2.44219 49.6554 0 47.2132 0 44.2008V39.3105H10.9092V44.2008C10.9092 47.2132 8.46703 49.6554 5.45461 49.6554Z" fill="#D2555A"/>
<path d="M92.728 49.6554C89.7156 49.6554 87.2734 47.2132 87.2734 44.2008V39.3105H98.1827V44.2008C98.1827 47.2132 95.7407 49.6554 92.728 49.6554Z" fill="#D2555A"/>
<path d="M38.1812 49.6554C35.1687 49.6554 32.7266 47.2132 32.7266 44.2008V39.3105H43.6358V44.2008C43.6358 47.2132 41.1938 49.6554 38.1812 49.6554Z" fill="#C7CFE2"/>
<path d="M81.814 49.6554C78.8016 49.6554 76.3594 47.2132 76.3594 44.2008V39.3105H87.2686V44.2008C87.2686 47.2132 84.8264 49.6554 81.814 49.6554Z" fill="#C7CFE2"/>
<path d="M114.548 49.6554C111.536 49.6554 109.094 47.2132 109.094 44.2008V39.3105H120.003V44.2008C120.003 47.2132 117.561 49.6554 114.548 49.6554Z" fill="#D2555A"/>
<path d="M103.634 49.6554C100.622 49.6554 98.1797 47.2132 98.1797 44.2008V39.3105H109.089V44.2008C109.089 47.2132 106.646 49.6554 103.634 49.6554Z" fill="#C7CFE2"/>
<path d="M16.3609 49.6554C13.3484 49.6554 10.9062 47.2132 10.9062 44.2008V39.3105H21.8155V44.2008C21.8155 47.2132 19.3733 49.6554 16.3609 49.6554Z" fill="#C7CFE2"/>
<path d="M59.9937 49.6554C56.9812 49.6554 54.5391 47.2132 54.5391 44.2008V39.3105H65.4483V44.2008C65.4483 47.2132 63.0061 49.6554 59.9937 49.6554Z" fill="#C7CFE2"/>
<path d="M54.5418 39.3106H43.6328L44.7613 22.7588H54.9182L54.5418 39.3106Z" fill="#FF6464"/>
<path d="M76.3635 39.3106H65.4545L65.0781 22.7588H75.235L76.3635 39.3106Z" fill="#FF6464"/>
<path d="M32.7293 39.3106H21.8203L24.4535 22.7588H34.6102L32.7293 39.3106Z" fill="#FF6464"/>
<path d="M10.9092 39.3106H0L4.13789 22.7588H14.2948L10.9092 39.3106Z" fill="#FF6464"/>
<path d="M98.1805 39.3106H87.2715L85.3906 22.7588H95.5473L98.1805 39.3106Z" fill="#FF6464"/>
<path d="M43.6358 39.3106H32.7266L34.6074 22.7588H44.7643L43.6358 39.3106Z" fill="#EFF2FA"/>
<path d="M87.2721 39.3106H76.3629L75.2344 22.7588H85.3912L87.2721 39.3106Z" fill="#EFF2FA"/>
<path d="M119.998 39.3106H109.089L105.703 22.7588H115.86L119.998 39.3106Z" fill="#FF6464"/>
<path d="M109.089 39.3106H98.1801L95.5469 22.7588H105.704L109.089 39.3106Z" fill="#EFF2FA"/>
<path d="M21.8152 39.3106H10.9062L14.2918 22.7588H24.4484L21.8152 39.3106Z" fill="#EFF2FA"/>
<path d="M65.4483 39.3106H54.5391L54.9155 22.7588H65.0719L65.4483 39.3106Z" fill="#EFF2FA"/>
<path d="M70.3452 64.1379V101.379H16.5522V64.1379H70.3452ZM72.4143 60H14.4831C13.3405 60 12.4141 60.9265 12.4141 62.0691V103.448C12.4141 104.591 13.3405 105.518 14.4831 105.518H72.4141C73.5566 105.518 74.4831 104.591 74.4831 103.448V62.0691C74.4831 60.9265 73.5569 60 72.4143 60Z" fill="#8F96AC"/>
<path d="M105.514 60H80.6863C79.5437 60 78.6172 60.9265 78.6172 62.0691V113.793H107.583V62.0691C107.583 60.9265 106.656 60 105.514 60ZM103.445 101.379H82.7551V64.1379H103.445V101.379Z" fill="#8F96AC"/>
<path d="M93.1024 22.7588H26.8957C24.6103 22.7588 22.7578 20.9063 22.7578 18.6209V6.20723C22.7578 3.92184 24.6103 2.06934 26.8957 2.06934H93.1027C95.388 2.06934 97.2405 3.92184 97.2405 6.20723V18.6211C97.2405 20.9063 95.388 22.7588 93.1024 22.7588Z" fill="#AFB9D2"/>
<path d="M92.0711 18.6207H27.933C27.3616 18.6207 26.8984 18.1576 26.8984 17.5862V7.24156C26.8984 6.67016 27.3616 6.20703 27.933 6.20703H92.0709C92.6423 6.20703 93.1054 6.67016 93.1054 7.24156V17.5864C93.1054 18.1576 92.6423 18.6207 92.0711 18.6207Z" fill="#FFD782"/>
<path d="M27.933 18.6207H92.0709C92.6423 18.6207 93.1054 18.1575 93.1054 17.5861V13.4482C93.1054 14.0196 92.6423 14.4828 92.0709 14.4828H27.933C27.3616 14.4828 26.8984 14.0196 26.8984 13.4482V17.5861C26.8987 18.1575 27.3618 18.6207 27.933 18.6207Z" fill="#FFAF5F"/>
<path d="M118.965 117.931H1.03453C0.463125 117.931 0 117.468 0 116.897V114.828C0 114.256 0.463125 113.793 1.03453 113.793H118.965C119.537 113.793 120 114.256 120 114.828V116.897C120 117.468 119.537 117.931 118.965 117.931Z" fill="#8F96AC"/>
</g>
<defs>
<clipPath id="clip0_4652_13555">
<rect width="120" height="120" fill="white"/>
</clipPath>
</defs>
</svg>
