<svg width="1351" height="1103" viewBox="0 0 1351 1103" fill="none" xmlns="http://www.w3.org/2000/svg">
<path d="M485.871 922.896C457.169 899.129 438.25 868.693 418.879 838.208C415.15 832.338 411.561 826.43 408.108 820.513L332.087 854.64C347.025 888.248 366.488 918.881 393.609 945.644C449.971 1001.26 533.024 1040.16 632.514 1054.29C720.342 1066.77 807.566 1057 880.245 1027.8C925.696 1009.55 965.094 982.761 996.521 951.967L887.316 936.009C809.983 993.565 728.337 1000.97 632.529 987.358C583.367 980.374 527.771 957.592 485.871 922.896Z" fill="#191D74"/>
<path d="M300.76 776.302L484.03 835.468L341.156 964.602L300.76 776.302Z" fill="#191D74"/>
<path d="M552.63 599.341C671.565 506.204 692.478 334.286 599.341 215.351C506.204 96.4156 334.286 75.5021 215.351 168.639C96.4159 261.776 75.5024 433.694 168.639 552.629C261.776 671.564 433.695 692.478 552.63 599.341Z" stroke="#191D74" stroke-width="88.9508" stroke-linecap="round" stroke-linejoin="round"/>
<path d="M945.207 647.746C1091.12 686.844 1241.11 600.252 1280.2 454.336C1319.3 308.42 1232.71 158.437 1086.79 119.339C940.878 80.2411 790.895 166.834 751.797 312.75C712.699 458.665 799.292 608.648 945.207 647.746Z" stroke="#191D74" stroke-width="88.9508" stroke-linecap="round" stroke-linejoin="round"/>
<circle cx="383.264" cy="366.588" r="155.664" transform="rotate(-52.742 383.264 366.588)" fill="black"/>
<mask id="mask0_4484_12448" style="mask-type:alpha" maskUnits="userSpaceOnUse" x="229" y="210" width="313" height="312">
<circle cx="385.483" cy="366.2" r="155.664" transform="rotate(-52.742 385.483 366.2)" fill="black"/>
</mask>
<g mask="url(#mask0_4484_12448)">
<path d="M426.727 190.093C457.03 213.142 462.608 256.789 439.187 287.581C415.766 318.372 372.214 324.648 341.911 301.599C311.608 278.55 306.03 234.903 329.451 204.111C352.872 173.32 396.424 167.043 426.727 190.093Z" fill="white"/>
</g>
<circle cx="1016.87" cy="383.82" r="155.664" transform="rotate(-52.742 1016.87 383.82)" fill="black"/>
<mask id="mask1_4484_12448" style="mask-type:alpha" maskUnits="userSpaceOnUse" x="861" y="228" width="313" height="312">
<circle cx="1017.48" cy="383.896" r="155.664" transform="rotate(-52.742 1017.48 383.896)" fill="black"/>
</mask>
<g mask="url(#mask1_4484_12448)">
<path d="M1039.82 216.115C1070.12 239.165 1075.7 282.811 1052.28 313.603C1028.86 344.395 985.308 350.671 955.005 327.621C924.702 304.572 919.123 260.925 942.545 230.134C965.966 199.342 1009.52 193.066 1039.82 216.115Z" fill="white"/>
</g>
</svg>
