﻿"Número de pedido","Fecha del pedido",SKU,"Item Name",Cantidad,"Coste de artículo","Nombre (envío)","Apellidos (envío)","Teléfono (facturación)","Correo electrónico (facturación)","Dirección lineas 1 y 2 (envío)","Ciudad (envío)","Código de provincia (envío)","Empresa (facturación)","Estado del pedido","Nota del cliente","Nombre (facturación)","Apellidos (facturación)","Dirección lineas 1 y 2 (facturación)","Ciudad (facturación)","Código de provincia (facturación)","Importe de descuento","Código postal (facturación)","Código del país (facturación)","Código postal (envío)","Código del país (envío)","Título del método de pago","Importe de descuento del carrito","Importe de subtotal del pedido","Título del método de envío","Importe de envío del pedido","Importe reembolsado del pedido","Importe total del pedido","Importe total de impuestos del pedido","Artículo #","Código de cupón","Importe de impuestos del descuento"
15378,"2022-02-09 09:32",202200009,"Bolso Amancaes - Print Celeste",1,210,Jennyfer,Zevallos,972878555,zjennyfer@hotmail.com,"Jirón Trujillo 456",Magdalena,LIM,43079225,Completado,,Jennyfer,Zevallos,"Jirón Trujillo 456, Dpto 501",Magdalena,LIM,,017,PE,017,PE,"Pay-me  Checkout",0,210,Lima,10.00,0,220.00,0,1,,
15375,"2022-02-08 21:12",202200009,"Bolso Amancaes - Print Celeste",1,210,Silvana,Nieri,"986 614 394",snieri@taller-efe.com,"Jr las Moras 310",Lima,LIM,10614292,Completado,,Silvana,Nieri,"Jr las Moras 310, Esquina con calle cucardas",Lima,LIM,,LIMA33,PE,LIMA33,PE,"Pay-me  Checkout",0,210,Lima,10.00,0,220.00,0,1,,
15367,"2022-02-08 10:01",202200009,"Bolso Amancaes - Print Celeste",1,210,Erika,Girón,959402612,erika.g.collana@gmail.com,"Calle chullo 701",Arequipa,ARE,44455018,Completado,,Erika,Girón,"Calle chullo 701, Dpto. 304",Arequipa,ARE,,04400,PE,04400,PE,"Pay-me  Checkout",0,210,Provincias,20.00,0,230.00,0,1,,
15362,"2022-02-07 19:37",202200009,"Bolso Amancaes - Print Celeste",1,210,Elizabeth,Jimenez,959463843,elizabet.jimenezc@gmail.com,"jr domingo ponte 1127","Magdalena del Mar",LIM,41257578,Completado,,Elizabeth,Jimenez,"jr domingo ponte 1127, departamento 202","Magdalena del Mar",LIM,,15076,PE,15076,PE,"Pay-me  Checkout",0,210,Lima,10.00,0,220.00,0,1,,
15359,"2022-02-07 16:17",202200009,"Bolso Amancaes - Print Celeste",1,210,Lorena,"Zegarra Ballon","989 975 816",lorena_931@hotmail.com,"Calle Marcona 324 dpto 501",SURCO,LIM,46837904,Completado,,Lorena,"Zegarra Ballon","Calle Marcona 324 dpto 501, Entre la 6 y 7 de caminos del inca",SURCO,LIM,,15038,PE,15038,PE,"Pay-me  Checkout",0,210,Lima,10.00,0,220.00,0,1,,
15352,"2022-02-07 13:22",2022104307,"Conjunto Lúcumo - Print Beige, M/L",1,319,Natalia,Valdivia,4761872,natalia_valdivia@hotmail.com,"Av. San Borja Norte 688",Lima,LIM,42045979,Completado,,Natalia,Valdivia,"Av. San Borja Norte 688, dpto 801",Lima,LIM,,15037,PE,15037,PE,"Pay-me  Checkout",0,319,"Envío gratuito",0.00,0,319.00,0,1,,
15349,"2022-02-04 12:06",2022116306,"Top Amarillis - Print Terracota, M",1,165,Madelaine,Machuca,991328554,maddi9723@gmail.com,"Jr.akapana 1060 mangomarca","San Juan de lurigancho",LIM,72328536,Completado,,Madelaine,Machuca,"Jr.akapana 1060 mangomarca, Piso 1","San Juan de lurigancho",LIM,,15427,PE,15427,PE,"Pay-me  Checkout",0,373,"Envío gratuito",0.00,0,373.00,0,1,,
15349,"2022-02-04 12:06",2022116304,"Falda Amarillis - Print Terracota, M",1,208,Madelaine,Machuca,991328554,maddi9723@gmail.com,"Jr.akapana 1060 mangomarca","San Juan de lurigancho",LIM,72328536,Completado,,Madelaine,Machuca,"Jr.akapana 1060 mangomarca, Piso 1","San Juan de lurigancho",LIM,,15427,PE,15427,PE,"Pay-me  Checkout",0,373,"Envío gratuito",0.00,0,373.00,0,2,,
15341,"2022-01-26 22:35",2022020008,"Vestido Flor - Fucsia-Beige",1,190,KATHERINE,"AYZANOA ALCA","993 883 966",unackaty@gmail.com,"Calle Armando Blondet 217","San isidro",LMA,45821870,Completado,,KATHERINE,"AYZANOA ALCA","Calle Armando Blondet 217","San isidro",LMA,,15047,PE,15047,PE,"Pay-me  Checkout",0,190,Lima,10.00,0,200.00,0,1,,
15340,"2022-01-26 21:23",2022116304,"Falda Amarillis - Print Terracota, M",1,208,"SUSAN STEPHANIE","LEON FLORES",970771140,sleonf8@gmail.com,"Av. Victor raul haya de la torre mz c' lt. 3-8","Nuevo chimbote",ANC,72579776,Completado,,"SUSAN STEPHANIE","LEON FLORES","Av. Victor raul haya de la torre mz c' lt. 3-8, P.j. primero de mayo","Nuevo chimbote",ANC,,02710,PE,02710,PE,"Pay-me  Checkout",0,373,Provincias,20.00,0,393.00,0,1,,
15340,"2022-01-26 21:23",2022116306,"Top Amarillis - Print Terracota, M",1,165,"SUSAN STEPHANIE","LEON FLORES",970771140,sleonf8@gmail.com,"Av. Victor raul haya de la torre mz c' lt. 3-8","Nuevo chimbote",ANC,72579776,Completado,,"SUSAN STEPHANIE","LEON FLORES","Av. Victor raul haya de la torre mz c' lt. 3-8, P.j. primero de mayo","Nuevo chimbote",ANC,,02710,PE,02710,PE,"Pay-me  Checkout",0,373,Provincias,20.00,0,393.00,0,2,,
15337,"2022-01-26 11:30",20210063011,"Maxi Blusa Acacia - Lavanda Acacia, M",1,138.6,Cristell,Cueva,"956 890 139",cristell.cueva@pucp.pe,"Av Reynaldo Vivanco 620",Surco,LIM,74958066,Completado,,Cristell,Cueva,"Av Reynaldo Vivanco 620, A la espalda de la cuadra 14 de Velasco astete",Surco,LIM,,74958066,PE,74958066,PE,"Pay-me  Checkout",0,138.6,Lima,10.00,0,148.60,0,1,,
15331,"2022-01-24 16:27",2022004002,"Top Ismene - Beige, TU",1,154,Pierina,"Contreras Ruiz",952547252,pieri.c@hotmail.com,"Los aymaras 162 - salamanca",Lima,LIM,72130331,Completado,,Pierina,"Contreras Ruiz","Los aymaras 162 - salamanca",Lima,LIM,,LIMA02,PE,LIMA02,PE,"Pay-me  Checkout",0,154,Lima,10.00,0,164.00,0,1,,
15330,"2022-01-24 15:51",2022112289,"Vestido Kimono Chabuca - Print Celeste, TU",1,250,yeraldin,Gonzalez,989969415,yerald_gs@hotmail.com,"leonardo da vinci mz LL lote 13 urb Santo Dominguito",trujillo,LAL,74064856,Completado,,yeraldin,Gonzalez,"leonardo da vinci mz LL lote 13 urb Santo Dominguito, grifo kalin a cuadra y media",trujillo,LAL,,051,PE,051,PE,"Pay-me  Checkout",0,250,Provincias,20.00,0,270.00,0,1,,
15329,"2022-01-24 10:00",,"Prueba dextra",1,1,prueba,dextra,123456789,merle@dextra.pe,"Miguel Dasso 144 6a San Isidro",Lima,LIM,12345678,Completado,,prueba,dextra,"Miguel Dasso 144 6a San Isidro",Lima,LIM,,01,PE,01,PE,"Transferencia bancaria directa",0,1,Lima,10.00,0,11.00,0,1,,
15327,"2022-01-23 19:32",20210102811,"Maxi Blusa Acacia - Amarillo Acacia, S",1,138.6,Francesca,"Noriega Revoredo",952606484,fnoriegar.fnr@gmail.com,"Av. Roca y Boloña 592",Lima,LIM,46273240,Completado,,Francesca,"Noriega Revoredo","Av. Roca y Boloña 592, 301",Lima,LIM,,15048,PE,15048,PE,"Pay-me  Checkout",0,138.6,Lima,10.00,0,148.60,0,1,,
15326,"2022-01-23 17:19",2022013008,"Vestido Flor - Rojo-Beige",1,190,Vanessa,Cueto,990661692,Atravesadaporlaluna@gmail.com,"Av Mariano cornejo 1429 dpto 1904 pueblo libre",Lima,LIM,10730405,Completado,,Vanessa,Cueto,"Av Mariano cornejo 1429 dpto 1904 pueblo libre, Dpto 1904",Lima,LIM,,LIMA21,PE,LIMA21,PE,"Pay-me  Checkout",0,190,Lima,10.00,0,200.00,0,1,,
15325,"2022-01-23 12:04",2022013008,"Vestido Flor - Rojo-Beige",1,190,Adela,"Montero de la Piedra","966 451 685",adelamonpie@hotmail.com,"Jorge Basadre 1435",Lima,LIM,74232163,Completado,,Adela,"Montero de la Piedra","Jorge Basadre 1435, 702",Lima,LIM,,15073,PE,15073,PE,"Pay-me  Checkout",0,190,Lima,10.00,0,200.00,0,1,,
15320,"2022-01-22 08:07",2022013008,"Vestido Flor - Rojo-Beige",1,190,Carla,Illescas,"962 369 898",carla_illescas@hotmail.com,"Dpto 301",Lima,LIM,46081463,Completado,,Carla,Illescas,"Dpto 301, Av Del Pinar 376",Lima,LIM,,LIMA15037,PE,LIMA15037,PE,"Pay-me  Checkout",0,190,Lima,10.00,0,200.00,0,1,,
15319,"2022-01-22 06:35",2022013008,"Vestido Flor - Rojo-Beige",1,190,alessandra,crovetto,989250232,alecrovettobruce@gmail.com,"montebrecia 169",lima,LIM,40500659,Completado,,alessandra,crovetto,"montebrecia 169, dpto 103 casuarinas surco",lima,LIM,,15023,PE,15023,PE,"Pay-me  Checkout",0,190,Lima,10.00,0,200.00,0,1,,
15318,"2022-01-21 21:17",2022204008,"Vestido Flor - Fucsia-Rojo",1,190,Sussy,Rodríguez,992724107,sussy1425@hotmail.com,"Jr. Combate de Angamos 705",Surco,LIM,42163056,Completado,,Sussy,Rodríguez,"Jr. Combate de Angamos 705, Torre L Dpto 504",Surco,LIM,,33,PE,33,PE,"Pay-me  Checkout",0,190,Lima,10.00,0,200.00,0,1,,
15317,"2022-01-21 21:03",2022204008,"Vestido Flor - Fucsia-Rojo",1,190,Raquel,Macedo,997081848,raquel_macedo_o@hotmail.com,"Av. Velasco Astete 3555 Surco",Lima,LIM,45897127,Completado,,Raquel,Macedo,"Av. Velasco Astete 3555 Surco",Lima,LIM,,15039,PE,15039,PE,"Pay-me  Checkout",0,190,Lima,10.00,0,200.00,0,1,,