﻿"Número de pedido","Fecha del pedido",SKU,"Item Name",Cantidad,"Coste de artículo","Importe de descuento del carrito","Importe de subtotal del pedido","Nombre (envío)","Apellidos (envío)","Teléfono (facturación)","Correo electrónico (facturación)","Dirección lineas 1 y 2 (envío)","Ciudad (envío)","Empresa (facturación)"
"14814","2021-12-14 18:31",2021007303,"TANK TOP (PACK X3) - Marrón/Celeste/Beige, M/L",1,190,0,190.00,"Sara Araceli","Jave Cubas",960601326,sajacu@gmail.com,"Terraplen B Mz E Lt #03",Chocope,46514034
"14813","2021-12-09 17:05",20210010010,"Blusa Malva - Blanco, TU",1,125.3,0,125.30,Ana,"Flores Whu",987416279,anafwhu@gmail.com,"Calle Boulevard 138 Surco",Lima,45144507
