﻿SKU,Nombre,Color,Talla,Inventario,Precio rebajado,Precio normal,URLImagen;
20200042844,Blusa Louise,Beige,S,0,90,180,https://inmaculada.shop/wp-content/uploads/2020/03/01-5-min-scaled.jpg;
20200022844,Blusa Louise, Negro, S,0,90,180,https://inmaculada.shop/wp-content/uploads/2020/03/01-7-min-scaled.jpg;
20200103044,Blusa Louise , Mostaza, M,0,90,180,https://inmaculada.shop/wp-content/uploads/2020/04/01-1-min-scaled.jpg;
20200103244,Blusa Louise , Mostaza, L,1,90,180,https://inmaculada.shop/wp-content/uploads/2020/04/01-1-min-scaled.jpg;
20200102844,Blusa Louise , Mostaza, S,1,90,180,https://inmaculada.shop/wp-content/uploads/2020/04/01-1-min-scaled.jpg;
20200043244,Blusa Louise , Beige, L,0,90,180,https://inmaculada.shop/wp-content/uploads/2020/04/PS_8770-scaled.jpg;
20200043044,Blusa Louise , Beige, M,0,90,180,https://inmaculada.shop/wp-content/uploads/2020/04/PS_8770-scaled.jpg;
20200023244,Blusa Louise , Negro, L,0,90,180,https://inmaculada.shop/wp-content/uploads/2020/04/PS_8805-scaled.jpg;
20200023044,Blusa Louise , Negro, M,0,90,180,https://inmaculada.shop/wp-content/uploads/2020/04/PS_8805-scaled.jpg;
20210140010,Blusa Malva , Hueso, TU,0,125.3,179,https://inmaculada.shop/wp-content/uploads/2021/02/F1A1778-scaled.jpg;
20210010010,Blusa Malva , Blanco, TU,1,125.3,179,https://inmaculada.shop/wp-content/uploads/2021/02/Pro-Capture-One-00592-1-scaled.jpg;
20210060010,Blusa Malva , Lavanda Margot, TU,5,125.3,179,https://inmaculada.shop/wp-content/uploads/2021/06/F1A0949-scaled.jpg;
20210150010,Blusa Malva , Ocre Gardenia, TU,1,125.3,179,https://inmaculada.shop/wp-content/uploads/2021/02/PS_4386-scaled.jpg;
20210040010,Blusa Malva , Beige, TU,0,125.3,179,https://inmaculada.shop/wp-content/uploads/2021/02/Pro-Capture-One-00874-scaled.jpg;
20200043230,Body Arista , Beige, L,0,104.3,149,https://inmaculada.shop/wp-content/uploads/2020/02/inmaculada04b-min.jpg;
20200043030,Body Arista , Beige, M,0,104.3,149,https://inmaculada.shop/wp-content/uploads/2020/02/inmaculada04b-min.jpg;
20190042830,Body Arista , Beige, S,1,104.3,149,https://inmaculada.shop/wp-content/uploads/2020/02/inmaculada04b-min.jpg;
20200023230,Body Arista , Negro, L,1,104.3,149,https://inmaculada.shop/wp-content/uploads/2020/04/107-min-scaled.jpg;
20200023030,Body Arista , Negro, M,0,104.3,149,https://inmaculada.shop/wp-content/uploads/2020/04/107-min-scaled.jpg;
20200133230,Body Arista , Rojo, L,1,104.3,149,https://inmaculada.shop/wp-content/uploads/2020/04/106-min-scaled.jpg;
20190082819,Body Becca , Azul, S,1,72,120,https://inmaculada.shop/wp-content/uploads/2020/07/correcto-7-copia-scaled.jpeg;
20190182819,Body Becca , Camel, S,0,72,120,https://inmaculada.shop/wp-content/uploads/2020/04/001-42-min-scaled.jpg;
20190183019,Body Becca , Camel, M,0,72,120,https://inmaculada.shop/wp-content/uploads/2020/04/001-42-min-scaled.jpg;
20190042819,Body Becca , Beige, S,0,72,120,https://inmaculada.shop/wp-content/uploads/2020/06/FALDA-PAULA-BEIGE.png;
20190043019,Body Becca , Beige, M,1,72,120,https://inmaculada.shop/wp-content/uploads/2020/06/FALDA-PAULA-BEIGE.png;
20190022819,Body Becca , Negro, S,1,72,120,https://inmaculada.shop/wp-content/uploads/2020/06/La-Inmaculada3049negro-1.png;
20190023219,Body Becca , Negro, L,0,72,120,https://inmaculada.shop/wp-content/uploads/2020/06/La-Inmaculada3049negro.png;
20190043219,Body Becca , Beige, L,0,72,120,https://inmaculada.shop/wp-content/uploads/2020/06/FALDA-PAULA-BEIGE.png;
20190183219,Body Becca , Camel, L,1,72,120,https://inmaculada.shop/wp-content/uploads/2020/04/001-29-min-scaled.jpg;
2017002301,Body Courtney , Negro, M,1,55,110,https://inmaculada.shop/wp-content/uploads/2020/03/BODY-COURTNEY.jpg;
2017002321,Body Courtney , Negro, L,1,55,110,https://inmaculada.shop/wp-content/uploads/2020/03/img-6-min-scaled.jpg;
20190023220,Body Raffaela , Negro, L,0,52,104,https://inmaculada.shop/wp-content/uploads/2020/04/001-36-min-scaled.jpg;
20190023020,Body Raffaela , Negro, M,0,52,104,https://inmaculada.shop/wp-content/uploads/2020/04/001-36-min-scaled.jpg;
20190022820,Body Raffaela , Negro, S,0,52,104,https://inmaculada.shop/wp-content/uploads/2020/04/001-36-min-scaled.jpg;
20190153020,Body Raffaela , Ladrillo, M,1,52,104,https://inmaculada.shop/wp-content/uploads/2020/04/001-37-min-scaled.jpg;
20190152820,Body Raffaela , Ladrillo, S,1,52,104,https://inmaculada.shop/wp-content/uploads/2020/04/001-37-min-scaled.jpg;
20190043220,Body Raffaela , Beige, L,0,52,104,https://inmaculada.shop/wp-content/uploads/2020/04/001-38-min-scaled.jpg;
20190043020,Body Raffaela , Beige, M,1,52,104,https://inmaculada.shop/wp-content/uploads/2020/04/001-38-min-scaled.jpg;
20190042820,Body Raffaela , Beige, S,0,52,104,https://inmaculada.shop/wp-content/uploads/2020/04/001-38-min-scaled.jpg;
20200042813,Buzo Tania , Beige, S/M,0,85,170,;
20200043013,Buzo Tania , Beige, M/L,0,85,170,;
20200172813,Buzo Tania , Guinda, S/M,1,85,170,https://inmaculada.shop/wp-content/uploads/2020/08/DSC08101-1-scaled.jpg;
20200173013,Buzo Tania , Guinda, M/L,1,85,170,https://inmaculada.shop/wp-content/uploads/2020/08/DSC08101-1-scaled.jpg;
20200022813,Buzo Tania , Negro, S/M,0,85,170,https://cdn.acelerala.com/files/uploads/776/1600998420-95-casaca-eira-top-tezza-buzo-tania-jpg.jpg;
20200023013,Buzo Tania , Negro, M/L,0,85,170,https://cdn.acelerala.com/files/uploads/776/1600998420-95-casaca-eira-top-tezza-buzo-tania-jpg.jpg;
2021010007,Camisaco Bellatrix , Amarillo Acacia, TU,2,209.3,299,https://inmaculada.shop/wp-content/uploads/2021/06/F1A2186-scaled.jpg;
2021002007,Camisaco Bellatrix , Negro, TU,0,209.3,299,https://inmaculada.shop/wp-content/uploads/2021/06/F1A2026-scaled.jpg;
2021011007,Camisaco Bellatrix , Verde, TU,2,209.3,299,https://inmaculada.shop/wp-content/uploads/2021/06/F1A1878-scaled.jpg;
2021012007,Camisaco Bellatrix , Celeste, TU,0,209.3,299,https://inmaculada.shop/wp-content/uploads/2021/06/F1A1925-scaled.jpg;
20200042814,Culotte çnia , Beige, S,1,120,240,https://inmaculada.shop/wp-content/uploads/2021/04/DSC07918-scaled.jpg;
20200152814,Culotte çnia , Lacre, S,0,120,240,https://inmaculada.shop/wp-content/uploads/2021/04/CULOTTE-ANIA-LACRE-1-scaled.jpg;
20200112814,Culotte çnia , Verde Olivo, S,2,120,240,https://inmaculada.shop/wp-content/uploads/2021/04/DSC07874-scaled.jpg;
20200043014,Culotte çnia , Beige, M,0,120,240,https://inmaculada.shop/wp-content/uploads/2021/04/DSC07929-scaled.jpg;
20200153014,Culotte çnia , Lacre, M,2,120,240,https://inmaculada.shop/wp-content/uploads/2020/09/DSC07845-scaled.jpg;
20200113014,Culotte çnia , Verde Olivo, M,1,120,240,https://inmaculada.shop/wp-content/uploads/2021/04/DSC07878-scaled.jpg;
20190042817,Culotte Marina , Beige, S,1,99.6,249,https://inmaculada.shop/wp-content/uploads/2020/03/img-14-min-scaled.jpg;
20190162817,Culotte Marina , Ladrillo, S,4,99.6,249,https://inmaculada.shop/wp-content/uploads/2020/03/img-15-min-scaled.jpg;
20190163217,Culotte Marina , Ladrillo, L,0,99.6,249,https://inmaculada.shop/wp-content/uploads/2020/03/img-15-min-scaled.jpg;
20190163017,Culotte Marina , Ladrillo, M,0,99.6,249,https://inmaculada.shop/wp-content/uploads/2020/03/img-15-min-scaled.jpg;
20190043217,Culotte Marina , Beige, L,1,99.6,249,https://inmaculada.shop/wp-content/uploads/2020/03/img-14-min-scaled.jpg;
20190043017,Culotte Marina , Beige, M,0,99.6,249,https://inmaculada.shop/wp-content/uploads/2020/03/img-14-min-scaled.jpg;
20200133029,Culotte Yera , print rojo 3, M,1,155.4,259,https://inmaculada.shop/wp-content/uploads/2020/03/01-8-min-scaled.jpg;
20200133229,Culotte Yera , print rojo 3, L,1,155.4,259,https://inmaculada.shop/wp-content/uploads/2020/03/01-8-min-scaled.jpg;
20200013029,Culotte Yera , Print perla 3, M,1,155.4,259,;
20200043229,Culotte Yera , Beige, L,0,155.4,259,https://inmaculada.shop/wp-content/uploads/2020/02/inmaculada03a-min.jpg;
20200042829,Culotte Yera , Beige, S,1,155.4,259,https://inmaculada.shop/wp-content/uploads/2020/02/inmaculada03a-min.jpg;
20200052829,Culotte Yera , Rosa, S,0,155.4,259,https://inmaculada.shop/wp-content/uploads/2020/04/01-18-min-scaled.jpg;
20200012829,Culotte Yera , Print perla 3, S,1,155.4,259,https://inmaculada.shop/wp-content/uploads/2020/04/001-34-min-scaled.jpg;
20200132829,Culotte Yera , print rojo 3, S,1,155.4,259,https://inmaculada.shop/wp-content/uploads/2020/03/01-8-min-scaled.jpg;
20200022836,Enterizo Acis , Print negro, S,2,130,260,https://inmaculada.shop/wp-content/uploads/2020/04/foto04-min-scaled.jpg;
20200012836,Enterizo Acis , Print perla 3, S,0,130,260,https://inmaculada.shop/wp-content/uploads/2020/04/foto01-min-scaled.jpg;
20200132836,Enterizo Acis , print rojo 3, S,1,130,260,https://inmaculada.shop/wp-content/uploads/2020/04/foto05-min-scaled.jpg;
20200013036,Enterizo Acis , Print perla 3, M,1,130,260,https://inmaculada.shop/wp-content/uploads/2020/04/foto01-min-scaled.jpg;
20200023036,Enterizo Acis , Print negro, M,1,130,260,https://inmaculada.shop/wp-content/uploads/2020/04/PS_8055-scaled.jpg;
20200133036,Enterizo Acis , print rojo 3, M,0,130,260,https://inmaculada.shop/wp-content/uploads/2020/04/foto05-min-scaled.jpg;
20210053021,Enterizo Camelia , Rosa, M/L,0,203,290,https://inmaculada.shop/wp-content/uploads/2021/02/Enterizo-Rosado-2-scaled.jpg;
20210052821,Enterizo Camelia , Rosa, S/M,1,203,290,https://inmaculada.shop/wp-content/uploads/2021/02/Enterizo-Rosado-2-scaled.jpg;
20210042821,Enterizo Camelia , Beige, S/M,1,203,290,https://inmaculada.shop/wp-content/uploads/2021/02/Pro-Capture-One-00417-scaled.jpg;
20210043021,Enterizo Camelia , Beige, M/L,0,203,290,https://inmaculada.shop/wp-content/uploads/2021/02/Pro-Capture-One-00405-scaled.jpg;
20200013037,Enterizo Galatea , Perla, M,0,140,280,https://inmaculada.shop/wp-content/uploads/2020/04/101-min-scaled.jpg;
20200012837,Enterizo Galatea , Perla, S,0,140,280,https://inmaculada.shop/wp-content/uploads/2020/04/101-min-scaled.jpg;
20201023237,Enterizo Galatea , Print negro, L,1,140,280,https://inmaculada.shop/wp-content/uploads/2020/04/PS_7939-scaled.jpg;
20201023037,Enterizo Galatea , Print negro, M,0,140,280,https://inmaculada.shop/wp-content/uploads/2020/04/PS_7939-scaled.jpg;
20201022837,Enterizo Galatea , Print negro, S,2,140,280,https://inmaculada.shop/wp-content/uploads/2020/04/PS_7939-scaled.jpg;
20200133237,Enterizo Galatea , print rojo 3, L,0,140,280,https://inmaculada.shop/wp-content/uploads/2020/04/PS_7966-scaled.jpg;
20200133037,Enterizo Galatea , print rojo 3, M,0,140,280,https://inmaculada.shop/wp-content/uploads/2020/04/PS_7966-scaled.jpg;
20200132837,Enterizo Galatea , print rojo 3, S,0,140,280,https://inmaculada.shop/wp-content/uploads/2020/04/PS_7966-scaled.jpg;
20200023037,Enterizo Galatea , Negro, M,0,140,280,https://inmaculada.shop/wp-content/uploads/2020/05/image00001-scaled.jpeg;
20200022837,Enterizo Galatea , Negro, S,0,140,280,https://inmaculada.shop/wp-content/uploads/2020/05/image00001-scaled.jpeg;
2019001283,Enterizo Ivana , Print Perla, S,5,167.2,209,https://inmaculada.shop/wp-content/uploads/2020/03/img-17-min-scaled.jpg;
2019005303,Enterizo Ivana , Print Rosa, M,1,167.2,209,https://inmaculada.shop/wp-content/uploads/2020/03/img-19-min-scaled.jpg;
2019005283,Enterizo Ivana , Print Rosa, S,0,167.2,209,https://inmaculada.shop/wp-content/uploads/2020/03/img-19-min-scaled.jpg;
2019001323,Enterizo Ivana , Print Perla, L,0,167.2,209,https://inmaculada.shop/wp-content/uploads/2020/03/img-17-min-scaled.jpg;
2019001303,Enterizo Ivana , Print Perla, M,0,167.2,209,https://inmaculada.shop/wp-content/uploads/2020/03/img-17-min-scaled.jpg;
20200053034,Falda Alh’a , Print rosa 2, M,0,113.4,189,https://inmaculada.shop/wp-content/uploads/2020/04/img-01--scaled.jpg;
20200052834,Falda Alh’a , Print rosa 2, S,0,113.4,189,https://inmaculada.shop/wp-content/uploads/2020/04/img-01--scaled.jpg;
20200193034,Falda Alh’a , Print Naranja, M,1,113.4,189,https://inmaculada.shop/wp-content/uploads/2020/04/img-02--scaled.jpg;
20200192834,Falda Alh’a , Print Naranja, S,0,113.4,189,https://inmaculada.shop/wp-content/uploads/2020/04/img-02--scaled.jpg;
2019017325,Falda Milena , Animal Print Guinda, L,1,90,180,https://inmaculada.shop/wp-content/uploads/2020/04/01-7-min-scaled.jpg;
2019101285,Falda Milena , Print Flores, S,1,90,180,https://inmaculada.shop/wp-content/uploads/2020/04/01-5-min-scaled.jpg;
2019101305,Falda Milena , Print Flores, M,5,90,180,https://inmaculada.shop/wp-content/uploads/2020/04/01-5-min-scaled.jpg;
2019101325,Falda Milena , Print Flores, L,3,90,180,https://inmaculada.shop/wp-content/uploads/2020/04/01-5-min-scaled.jpg;
2019002285,Falda Milena , Negro, S,0,90,180,https://inmaculada.shop/wp-content/uploads/2020/04/01-6-min-scaled.jpg;
2019017305,Falda Milena , Animal Print Guinda, M,3,90,180,https://inmaculada.shop/wp-content/uploads/2020/04/01-7-min-scaled.jpg;
2019017285,Falda Milena , Animal Print Guinda, S,7,90,180,https://inmaculada.shop/wp-content/uploads/2020/04/01-7-min-scaled.jpg;
2.019E+12,Falda Paula , Print rojo, S,3,100,200,https://inmaculada.shop/wp-content/uploads/2020/04/001-28-min-scaled.jpg;
20190133011,Falda Paula , Print rojo, M,0,100,200,https://inmaculada.shop/wp-content/uploads/2020/04/001-29-min-scaled.jpg;
20190172811,Falda Paula , Guinda, S,0,100,200,https://inmaculada.shop/wp-content/uploads/2020/04/001-29-min-scaled.jpg;
20190103011,Falda Paula , Mostaza, M,0,100,200,https://inmaculada.shop/wp-content/uploads/2020/04/image00009.jpeg;
20190102811,Falda Paula , Mostaza, S,2,100,200,https://inmaculada.shop/wp-content/uploads/2020/04/image00009.jpeg;
20190042811,Falda Paula , Beige, S,0,100,200,https://inmaculada.shop/wp-content/uploads/2020/04/001-30-min-scaled.jpg;
20190082811,Falda Paula , Print azul 2, S,0,100,200,https://inmaculada.shop/wp-content/uploads/2020/04/01-17-min-scaled.jpg;
20200042840,Falda Venus , Beige, S,0,128,160,;
20200043040,Falda Venus , Beige, M,0,128,160,;
20200043240,Falda Venus , Beige, L,0,128,160,;
20200012840,Falda Venus , Blanco, S,0,128,160,https://cdn.acelerala.com/files/uploads/776/1634700462-65-disen-o-sin-ti-tulo-1-jpg.jpg;
20200013040,Falda Venus , Blanco, M,1,128,160,https://cdn.acelerala.com/files/uploads/776/1634700462-65-disen-o-sin-ti-tulo-1-jpg.jpg;
20200013240,Falda Venus , Blanco, L,0,128,160,https://cdn.acelerala.com/files/uploads/776/1634700462-65-disen-o-sin-ti-tulo-1-jpg.jpg;
20200052840,Falda Venus , Rosa, S,0,128,160,https://inmaculada.shop/wp-content/uploads/2020/10/FALDA-1-scaled.jpg;
20200053040,Falda Venus , Rosa, M,1,128,160,https://inmaculada.shop/wp-content/uploads/2020/10/FALDA-1-scaled.jpg;
20200053240,Falda Venus , Rosa, L,0,128,160,https://inmaculada.shop/wp-content/uploads/2020/10/FALDA-1-scaled.jpg;
20200112840,Falda Venus , Verde, S,1,128,160,https://cdn.acelerala.com/files/uploads/776/1604069575-93-63-jpg.jpg;
20200113040,Falda Venus , Verde, M,1,128,160,https://cdn.acelerala.com/files/uploads/776/1604069575-93-63-jpg.jpg;
20200113240,Falda Venus , Verde, L,1,128,160,https://cdn.acelerala.com/files/uploads/776/1604069575-93-63-jpg.jpg;
2019001004,Jumper Miranda , Blanco, TU,4,90,150,https://inmaculada.shop/wp-content/uploads/2020/03/JUMPER-MIRANDA.jpg;
2019011004,Jumper Miranda , Verde, TU,0,90,150,https://inmaculada.shop/wp-content/uploads/2020/04/001-27-min-scaled.jpg;
2020000010,Kimono Elina , Blanco, TU,0,125.3,179,https://inmaculada.shop/wp-content/uploads/2020/05/InmaculadaSS20_0031-scaled.jpg;
20210102811,Maxi Blusa Acacia , Amarillo Acacia, S,5,138.6,198,https://inmaculada.shop/wp-content/uploads/2021/06/F1A2059-1-scaled.jpg;
20210103011,Maxi Blusa Acacia , Amarillo Acacia, M,0,138.6,198,https://inmaculada.shop/wp-content/uploads/2021/06/F1A2059-1-scaled.jpg;
20210042811,Maxi Blusa Acacia , Beige Acacia, S,0,138.6,198,https://inmaculada.shop/wp-content/uploads/2021/02/Pro-Capture-One-00477-scaled.jpg;
20210043011,Maxi Blusa Acacia , Beige Acacia, M,0,138.6,198,https://inmaculada.shop/wp-content/uploads/2021/02/Pro-Capture-One-00477-scaled.jpg;
20210062811,Maxi Blusa Acacia , Lavanda Acacia, S,0,138.6,198,https://inmaculada.shop/wp-content/uploads/2021/02/PS_4332-scaled.jpg;
20210063011,Maxi Blusa Acacia , Lavanda Acacia, M,0,138.6,198,https://inmaculada.shop/wp-content/uploads/2021/02/PS_4332-scaled.jpg;
20210052811,Maxi Blusa Acacia , Rosa claro, S,0,138.6,198,https://inmaculada.shop/wp-content/uploads/2021/06/F1A1464-scaled.jpg;
20210053011,Maxi Blusa Acacia , Rosa claro, M,0,138.6,198,https://inmaculada.shop/wp-content/uploads/2021/06/F1A1464-scaled.jpg;
9.92021E+11,Maxi Blusa Acacia , Rosado Acacia, S,0,138.6,198,https://inmaculada.shop/wp-content/uploads/2021/02/PS_4332-scaled.jpg;
9.92021E+11,Maxi Blusa Acacia , Rosado Acacia, M,0,138.6,198,https://inmaculada.shop/wp-content/uploads/2021/02/PS_4332-scaled.jpg;
20200022843,Pantal—n Dalia , Negro, S,1,155.4,259,https://inmaculada.shop/wp-content/uploads/2020/06/PS_8453-scaled.jpg;
20200023243,Pantal—n Dalia , Negro, L,0,155.4,259,https://inmaculada.shop/wp-content/uploads/2020/06/PS_8453-scaled.jpg;
2021010268,Pantal—n Enif , Amarillo Acacia,26,6,148,185,https://inmaculada.shop/wp-content/uploads/2021/06/F1A2059-scaled.jpg;
2021010288,Pantal—n Enif , Amarillo Acacia,28,7,148,185,https://inmaculada.shop/wp-content/uploads/2021/06/F1A2059-scaled.jpg;
2021010308,Pantal—n Enif , Amarillo Acacia,30,1,148,185,https://inmaculada.shop/wp-content/uploads/2021/06/F1A2056-scaled.jpg;
2021010328,Pantal—n Enif , Amarillo Acacia,32,0,148,185,https://inmaculada.shop/wp-content/uploads/2021/06/F1A2074-scaled.jpg;
2021006268,Pantal—n Enif , Lavanda Acacia,26,3,148,185,https://inmaculada.shop/wp-content/uploads/2021/06/F1A0972-scaled.jpg;
2021006288,Pantal—n Enif , Lavanda Acacia,28,5,148,185,https://inmaculada.shop/wp-content/uploads/2021/06/F1A1195-scaled.jpg;
2021006308,Pantal—n Enif , Lavanda Acacia,30,1,148,185,https://inmaculada.shop/wp-content/uploads/2021/06/F1A1001-scaled.jpg;
2021006328,Pantal—n Enif , Lavanda Acacia,32,0,148,185,https://inmaculada.shop/wp-content/uploads/2021/06/F1A0947-scaled.jpg;
2021001268,Pantal—n Enif , Perla,26,1,148,185,https://inmaculada.shop/wp-content/uploads/2021/06/F1A1692-scaled.jpg;
2021001288,Pantal—n Enif , Perla,28,3,148,185,https://inmaculada.shop/wp-content/uploads/2021/06/F1A1681-scaled.jpg;
2021001308,Pantal—n Enif , Perla,30,0,148,185,https://inmaculada.shop/wp-content/uploads/2021/06/F1A1681-scaled.jpg;
2021001328,Pantal—n Enif , Perla,32,0,148,185,https://inmaculada.shop/wp-content/uploads/2021/06/F1A1692-scaled.jpg;
2021005268,Pantal—n Enif , Rosa,26,0,148,185,https://inmaculada.shop/wp-content/uploads/2021/06/F1A1604-scaled.jpg;
2021005288,Pantal—n Enif , Rosa,28,5,148,185,https://inmaculada.shop/wp-content/uploads/2021/06/F1A1582-scaled.jpg;
2021005308,Pantal—n Enif , Rosa,30,0,148,185,https://inmaculada.shop/wp-content/uploads/2021/06/F1A1434-scaled.jpg;
2021005328,Pantal—n Enif , Rosa,32,0,148,185,https://inmaculada.shop/wp-content/uploads/2021/06/F1A1434-scaled.jpg;
20200042816,Polera çnica , Beige, S,0,99.5,199,https://inmaculada.shop/wp-content/uploads/2020/09/3-scaled.jpg;
20200043016,Polera çnica , Beige, M,0,99.5,199,https://inmaculada.shop/wp-content/uploads/2020/09/2-scaled.jpg;
20200152816,Polera çnica , Lacre, S,0,99.5,199,https://inmaculada.shop/wp-content/uploads/2020/09/DSC07842-scaled.jpg
20200112816,Polera çnica , Verde Olivo, S,1,99.5,199,https://inmaculada.shop/wp-content/uploads/2020/09/DSC07881-scaled.jpg
20200153016,Polera çnica , Lacre, M,1,99.5,199,https://inmaculada.shop/wp-content/uploads/2020/09/DSC07842-scaled.jpg
20200113016,Polera çnica , Verde Olivo, M,0,99.5,199,https://inmaculada.shop/wp-content/uploads/2020/09/DSC07881-scaled.jpg
20200022815,Polera Tess , Negro, S/M,7,95,190,https://inmaculada.shop/wp-content/uploads/2021/04/DSC07580-scaled.jpg
20200023015,Polera Tess , Negro, M/L,0,95,190,https://inmaculada.shop/wp-content/uploads/2021/04/DSC07580-scaled.jpg
20200042815,Polera Tess , Beige, S/M,0,95,190,https://inmaculada.shop/wp-content/uploads/2020/09/2-scaled.jpg
20200043015,Polera Tess , Beige, M/L,0,95,190,https://inmaculada.shop/wp-content/uploads/2020/09/2-scaled.jpg
20200172815,Polera Tess , Guinda, S/M,1,95,190,https://inmaculada.shop/wp-content/uploads/2020/08/DSC08153-1-scaled.jpg;
20200173015,Polera Tess , Guinda, M/L,0,95,190,https://inmaculada.shop/wp-content/uploads/2020/08/DSC08153-1-scaled.jpg;
20190183018,Polo Regina , Camel, M,0,65.5,131,https://inmaculada.shop/wp-content/uploads/2020/04/001-22-min-scaled.jpg;
20190042818,Polo Regina , Beige, S,0,65.5,131,https://inmaculada.shop/wp-content/uploads/2020/04/001-22-min-scaled.jpg;
20190043018,Polo Regina , Beige, M,0,65.5,131,https://inmaculada.shop/wp-content/uploads/2020/04/001-22-min-scaled.jpg;
20190022818,Polo Regina , Negro, S,0,65.5,131,https://inmaculada.shop/wp-content/uploads/2020/04/001-36-min-scaled-1000x1500.jpg;
20190182818,Polo Regina , Camel, S,1,65.5,131,https://inmaculada.shop/wp-content/uploads/2020/07/correcto-4-scaled-1000x1333.jpeg;
2016002283,Ropa de Ba–o Anabel , Negro, S,2,80,160,https://inmaculada.shop/wp-content/uploads/2020/04/ROPA-DE-BA„O-ANABEL-scaled.jpg;
20210102825,Short Iris , Amarillo, S,1,75,150,https://inmaculada.shop/wp-content/uploads/2020/12/Iris-amarillo-3-scaled.jpg;
20210103025,Short Iris , Amarillo, M,2,75,150,https://inmaculada.shop/wp-content/uploads/2020/12/Iris-amarillo-scaled.jpg;
20210103225,Short Iris , Amarillo, L,1,75,150,https://inmaculada.shop/wp-content/uploads/2020/12/Iris-amarillo-3-scaled.jpg;
20210042825,Short Iris , Beige, S,2,75,150,https://inmaculada.shop/wp-content/uploads/2020/12/Iris-beige-4-scaled.jpg;
20210043025,Short Iris , Beige, M,1,75,150,https://inmaculada.shop/wp-content/uploads/2020/12/Iris-beige-3-scaled.jpg;
20210043225,Short Iris , Beige, L,1,75,150,https://inmaculada.shop/wp-content/uploads/2020/12/Iris-beige-scaled.jpg;
20210022825,Short Iris , Negro, S,2,75,150,https://inmaculada.shop/wp-content/uploads/2020/12/Conjunto-iris-negro-2-scaled.jpg;
20210023025,Short Iris , Negro, M,2,75,150,https://inmaculada.shop/wp-content/uploads/2020/12/Conjunto-iris-negro-2-scaled.jpg;
20210023225,Short Iris , Negro, L,0,75,150,https://inmaculada.shop/wp-content/uploads/2020/12/Conjunto-iris-negro-2-scaled.jpg;
20210112825,Short Iris , Verde, S,1,75,150,https://inmaculada.shop/wp-content/uploads/2020/12/Iris-verde-agua-2-scaled.jpg;
20210113025,Short Iris , Verde, M,2,75,150,https://inmaculada.shop/wp-content/uploads/2020/12/Iris-verde-agua-2-scaled.jpg;
20210113225,Short Iris , Verde, L,0,75,150,https://inmaculada.shop/wp-content/uploads/2020/12/Pro-Capture-One-01203-scaled.jpg;
20201023038,Short Martha , Print negro, M,0,120,200,https://inmaculada.shop/wp-content/uploads/2020/04/001-21-min-scaled.jpg;
20201023238,Short Martha , Print negro, L,0,120,200,https://inmaculada.shop/wp-content/uploads/2020/04/001-21-min-scaled.jpg;
20200012838,Short Martha , Perla, S,0,120,200,https://inmaculada.shop/wp-content/uploads/2020/04/01-3-min-scaled.jpg;
20200013038,Short Martha , Perla, M,0,120,200,https://inmaculada.shop/wp-content/uploads/2020/04/01-3-min-scaled.jpg;
20200013238,Short Martha , Perla, L,1,120,200,https://inmaculada.shop/wp-content/uploads/2020/04/01-3-min-scaled.jpg;
20200022838,Short Martha , Negro, S,1,120,200,https://inmaculada.shop/wp-content/uploads/2020/04/01-12-min-scaled.jpg;
20200023038,Short Martha , Negro, M,0,120,200,https://inmaculada.shop/wp-content/uploads/2020/04/01-12-min-scaled.jpg;
20200023238,Short Martha , Negro, L,1,120,200,https://inmaculada.shop/wp-content/uploads/2020/04/01-12-min-scaled.jpg;
20201022838,Short Martha , Print negro, S,1,120,200,https://inmaculada.shop/wp-content/uploads/2020/04/001-21-min-scaled.jpg;
20200133238,Short Martha , print rojo 2, L,0,120,200,https://inmaculada.shop/wp-content/uploads/2020/03/01-17-min-scaled.jpg;
20200133038,Short Martha , print rojo 2, M,0,120,200,https://inmaculada.shop/wp-content/uploads/2020/03/01-17-min-scaled.jpg;
20200132838,Short Martha , print rojo 2, S,1,120,200,https://inmaculada.shop/wp-content/uploads/2020/03/01-17-min-scaled.jpg;
2019011326,Short Martina , Verde, L,0,96,160,https://inmaculada.shop/wp-content/uploads/2020/04/001-13-min-scaled.jpg;
2019011306,Short Martina , Verde, M,1,96,160,https://inmaculada.shop/wp-content/uploads/2020/04/001-13-min-scaled.jpg;
2019002326,Short Martina , Negro, L,0,96,160,;
2019002306,Short Martina , Negro, M,1,96,160,;
2019011287,Short Tamara , Verde, S,1,77.5,155,https://inmaculada.shop/wp-content/uploads/2020/03/img-42-min-scaled.jpg;
2019001307,Short Tamara , Blanco, M,0,77.5,155,https://inmaculada.shop/wp-content/uploads/2020/04/001-20-min-scaled.jpg;
2019001287,Short Tamara , Blanco, S,0,77.5,155,https://inmaculada.shop/wp-content/uploads/2020/04/001-20-min-scaled.jpg;
2019011327,Short Tamara , Verde, L,0,77.5,155,https://inmaculada.shop/wp-content/uploads/2020/03/img-42-min-scaled.jpg;
2019011307,Short Tamara , Verde, M,0,77.5,155,https://inmaculada.shop/wp-content/uploads/2020/03/img-42-min-scaled.jpg;
2019002301,Top Amanda , Negro, M,0,89.4,149,https://inmaculada.shop/wp-content/uploads/2020/04/001-18-min-scaled.jpg;
2019002281,Top Amanda , Negro, S,1,89.4,149,https://inmaculada.shop/wp-content/uploads/2020/04/001-18-min-scaled.jpg;
20200013033,Top Charlotte , Blanco, M,1,99,165,https://inmaculada.shop/wp-content/uploads/2020/03/01-16-min-scaled.jpg;
20200012833,Top Charlotte , Blanco, S,0,99,165,https://inmaculada.shop/wp-content/uploads/2020/03/01-16-min-scaled.jpg;
20201042833,Top Charlotte , Animal Print Beige, S,0,99,165,https://inmaculada.shop/wp-content/uploads/2020/04/001-15-min-scaled.jpg;
20200112835,Top Efira , Verde/Lacre, S,0,136,170,https://inmaculada.shop/wp-content/uploads/2020/04/pic02-min-scaled.jpg;
20200052835,Top Efira , Coral, S,1,136,170,https://inmaculada.shop/wp-content/uploads/2020/02/inmaculada12a-min.jpg;
20200053035,Top Efira , Coral, M,0,136,170,https://inmaculada.shop/wp-content/uploads/2020/02/inmaculada12a-min.jpg;
20200052635,Top Efira , Coral, XS,1,136,170,https://inmaculada.shop/wp-content/uploads/2020/02/inmaculada12a-min.jpg;
20200032835,Top Efira , Gris/Rosa, S,0,136,170,;
20200132839,Top Emm , print rojo 3, S,0,139.3,199,https://inmaculada.shop/wp-content/uploads/2020/02/inmaculada11a-min.jpg;
20200012839,Top Emm , Print perla 3, S,0,139.3,199,;
20200023039,Top Emm , Print negro, M,0,139.3,199,https://inmaculada.shop/wp-content/uploads/2020/04/PS_7939-scaled-1000x1500.jpg;
20200013039,Top Emm , Print perla 3, M,0,139.3,199,;
20200022839,Top Emm , Print negro, S,1,139.3,199,https://inmaculada.shop/wp-content/uploads/2020/04/PS_7939-scaled-1000x1500.jpg;
2016101281,Top Eva , claro, S,0,80,200,https://inmaculada.shop/wp-content/uploads/2020/03/O4B2401-scaled.jpg;
2016102281,Top Eva , oscuro, S,2,80,200,https://inmaculada.shop/wp-content/uploads/2020/12/top-eva-print-oscuro-scaled.jpg;
2016102301,Top Eva , oscuro, M,0,80,200,https://inmaculada.shop/wp-content/uploads/2020/12/top-eva-print-oscuro-scaled.jpg;
20210113026,Top Gardenia , Verde Agua Gardenia, M/L,3,90,150,https://inmaculada.shop/wp-content/uploads/2020/12/INMACULADA39402.jpg;
20210112826,Top Gardenia , Verde Agua Gardenia, XS/S,0,90,150,https://inmaculada.shop/wp-content/uploads/2020/12/INMACULADA39402.jpg;
20210063026,Top Gardenia , Lavanda Margot, M/L,0,90,150,https://inmaculada.shop/wp-content/uploads/2020/12/Pro-Capture-One-01482-scaled.jpg;
20210062826,Top Gardenia , Lavanda Margot, XS/S,2,90,150,https://inmaculada.shop/wp-content/uploads/2020/12/INMACULADA39412-copy.jpg;
20210152826,Top Gardenia , Ocre Gardenia, XS/S,0,90,150,https://inmaculada.shop/wp-content/uploads/2020/12/top-gardenia-ocre-2.jpg;
20210153026,Top Gardenia , Ocre Gardenia, M/L,0,90,150,https://inmaculada.shop/wp-content/uploads/2020/12/Pro-Capture-One-01420-scaled.jpg;
20210043026,Top Gardenia , Beige, M/L,4,90,150,https://inmaculada.shop/wp-content/uploads/2020/12/Top-gardenia-beige-scaled.jpg;
20210042826,Top Gardenia , Beige, XS/S,4,90,150,https://inmaculada.shop/wp-content/uploads/2020/12/Bermuda-begonia-scaled.jpg;
20190103042,Top Gianna , Mostaza, M,1,77,110,https://inmaculada.shop/wp-content/uploads/2020/07/top-gianna-1-scaled.jpg;
20190023042,Top Gianna , Negro, M,0,77,110,;
20190022842,Top Gianna , Negro, S,0,77,110,;
20190182842,Top Gianna , Camel, S,0,77,110,;
20190183042,Top Gianna , Camel, M,1,77,110,;
2016002282,Top Jade , Negro, S,0,87.5,125,https://inmaculada.shop/wp-content/uploads/2020/07/top-jade.jpg;
2016002322,Top Jade , Negro, L,0,87.5,125,https://inmaculada.shop/wp-content/uploads/2020/07/top-jade.jpg;
2016009282,Top Jade , Gris, S,1,87.5,125,;
20200023031,Top Ligea , Negro, M,1,125.3,179,https://inmaculada.shop/wp-content/uploads/2020/04/01-9-min-scaled.jpg;
20200012831,Top Ligea , Perla, S,1,125.3,179,https://inmaculada.shop/wp-content/uploads/2020/04/105-min-scaled.jpg;
20200022831,Top Ligea , Negro, S,,125.3,179,https://inmaculada.shop/wp-content/uploads/2020/04/01-9-min-scaled.jpg;
20210043012,Top Lina , BEIGE, M,0,96,160,https://inmaculada.shop/wp-content/uploads/2020/12/IMG-4989-scaled.jpg;
20210042812,Top Lina , BEIGE, S,0,96,160,https://inmaculada.shop/wp-content/uploads/2020/12/IMG-4989-scaled.jpg;
20210062812,Top Lina , LAVANDA, S,2,96,160,https://inmaculada.shop/wp-content/uploads/2020/12/IMG-4990-scaled.jpg;
20210063012,Top Lina , LAVANDA, M,0,96,160,https://inmaculada.shop/wp-content/uploads/2020/12/IMG-4990-scaled.jpg;
20210162812,Top Lina , TERRACOTA, S,0,96,160,https://inmaculada.shop/wp-content/uploads/2020/12/1-2-scaled.jpg;
20210163012,Top Lina , TERRACOTA, M,0,96,160,https://inmaculada.shop/wp-content/uploads/2020/12/1-2-scaled.jpg;
20210052812,Top Lina , ROSA, S,2,96,160,https://inmaculada.shop/wp-content/uploads/2020/12/IMG-4985-scaled.jpg;
20210053012,Top Lina , ROSA, M,1,96,160,https://inmaculada.shop/wp-content/uploads/2020/12/IMG-4985-scaled.jpg;
2019002282,Top Malia , Negro, S,0,51,170,https://inmaculada.shop/wp-content/uploads/2020/04/01-6-min-scaled.jpg;
2019017322,Top Malia , Animal Print Guinda, L,0,51,170,https://inmaculada.shop/wp-content/uploads/2020/04/01-min-scaled.jpg;
2019017282,Top Malia , Animal Print Guinda, S,2,51,170,https://inmaculada.shop/wp-content/uploads/2020/04/01-min-scaled.jpg;
2019101322,Top Malia , Print Flores, L,0,51,170,https://inmaculada.shop/wp-content/uploads/2020/04/02-min-scaled.jpg;
2019101282,Top Malia , Print Flores, S,1,51,170,https://inmaculada.shop/wp-content/uploads/2020/04/02-min-scaled.jpg;
20200042841,Top Tezza , Beige, S,0,70,100,https://inmaculada.shop/wp-content/uploads/2020/09/DSC07085-scaled.jpg;
20200043041,Top Tezza , Beige, M,2,70,100,https://inmaculada.shop/wp-content/uploads/2020/09/DSC07085-scaled.jpg;
2016002284,Vestido 70S , Beige/Negro, S,0,100,200,https://inmaculada.shop/wp-content/uploads/2020/03/img-59-min-scaled.jpg;
2016007284,Vestido 70S , Beige/Marr—n, S,2,100,200,https://inmaculada.shop/wp-content/uploads/2020/03/img-58-min-scaled.jpg;
2016006284,Vestido 70S , Negro/Morado, S,0,100,200,https://inmaculada.shop/wp-content/uploads/2020/03/img-60-min-scaled.jpg;
20210012827,Vestido Alhel’ , Blanco tejido, S,0,176,220,https://inmaculada.shop/wp-content/uploads/2020/12/MG_9366-1-scaled.jpg;
20210052827,Vestido Alhel’ , Rosa Tejido, S,3,176,220,https://inmaculada.shop/wp-content/uploads/2020/12/INMACULADA38720-1.jpg;
20210053027,Vestido Alhel’ , Rosa Tejido, M,1,176,220,https://inmaculada.shop/wp-content/uploads/2020/12/INMACULADA38720.jpg;
20210112827,Vestido Alhel’ , Verde tejido, S,0,176,220,https://inmaculada.shop/wp-content/uploads/2020/12/VESTIDO-ALHELI-VERDE-scaled.jpg;
20210113027,Vestido Alhel’ , Verde tejido, M,1,176,220,https://inmaculada.shop/wp-content/uploads/2020/12/vestido-tejido-verde-scaled.jpg;
20210013227,Vestido Alhel’ , Blanco tejido, L,0,176,220,https://inmaculada.shop/wp-content/uploads/2020/12/INMACULADA38893-1.jpg;
20210053227,Vestido Alhel’ , Rosa Tejido, L,0,176,220,https://inmaculada.shop/wp-content/uploads/2020/12/INMACULADA38720.jpg;
20210113227,Vestido Alhel’ , Verde tejido, L,1,176,220,https://inmaculada.shop/wp-content/uploads/2020/12/vestido-tejido-verde-scaled.jpg;
2019005009,Vestido Carla , Rosa, TU,1,130,260,https://inmaculada.shop/wp-content/uploads/2020/03/img-65-min-scaled.jpg;
20210102824,Vestido Iris , Amarillo, S,1,108,180,https://inmaculada.shop/wp-content/uploads/2020/12/Pro-Capture-One-01380-scaled.jpg;
20210103024,Vestido Iris , Amarillo, M,1,108,180,https://inmaculada.shop/wp-content/uploads/2020/12/Pro-Capture-One-01398-scaled.jpg;
20210103224,Vestido Iris , Amarillo, L,1,108,180,https://inmaculada.shop/wp-content/uploads/2020/12/Pro-Capture-One-01352-scaled.jpg;
20210112824,Vestido Iris , Verde, S,0,108,180,https://inmaculada.shop/wp-content/uploads/2020/12/Iris-verde-agua-scaled.jpg;
20210113024,Vestido Iris , Verde, M,2,108,180,https://inmaculada.shop/wp-content/uploads/2020/12/Iris-verde-agua-2-scaled.jpg;
20210113224,Vestido Iris , Verde, L,1,108,180,https://inmaculada.shop/wp-content/uploads/2020/12/Iris-verde-agua-scaled.jpg;
20210022824,Vestido Iris , Negro, S,2,108,180,https://inmaculada.shop/wp-content/uploads/2020/12/Iris-negro-6-scaled.jpg;
20210023024,Vestido Iris , Negro, M,0,108,180,https://inmaculada.shop/wp-content/uploads/2020/12/Conjunto-Iris-negro-scaled.jpg;
20210023224,Vestido Iris , Negro, L,0,108,180,https://inmaculada.shop/wp-content/uploads/2020/12/Conjunto-iris-negro-2-scaled.jpg;
20210042824,Vestido Iris , Beige, S,0,108,180,https://inmaculada.shop/wp-content/uploads/2020/12/Iris-Beige-2-2-scaled.jpg;
20210043024,Vestido Iris , Beige, M,0,108,180,https://inmaculada.shop/wp-content/uploads/2020/12/Pro-Capture-One-01327-scaled.jpg;
20210043224,Vestido Iris , Beige, L,0,108,180,https://inmaculada.shop/wp-content/uploads/2020/12/Pro-Capture-One-01374-scaled.jpg;
2020004308,Vestido Lisa , nude, M,1,130,260,https://inmaculada.shop/wp-content/uploads/2020/04/001-7-min-scaled.jpg;
2020004288,Vestido Lisa , nude, S,0,130,260,https://inmaculada.shop/wp-content/uploads/2020/04/001-7-min-scaled.jpg;
2020001328,Vestido Lisa , Perla, L,1,130,260,https://inmaculada.shop/wp-content/uploads/2020/04/001-6-min-scaled.jpg;
2020001288,Vestido Lisa , Perla, S,0,130,260,https://inmaculada.shop/wp-content/uploads/2020/04/001-6-min-scaled.jpg;
2020002328,Vestido Lisa , Negro, L,0,130,260,https://inmaculada.shop/wp-content/uploads/2020/04/01-4-min-scaled.jpg;
2019002288,Vestido Lisa , Negro, S,0,130,260,https://inmaculada.shop/wp-content/uploads/2020/04/01-4-min-scaled.jpg;
20210152823,Vestido Margot , Ocre Margot, S,3,156,260,https://inmaculada.shop/wp-content/uploads/2020/12/INMACULADA39207.jpg;
20210153023,Vestido Margot , Ocre Margot, M,0,156,260,https://inmaculada.shop/wp-content/uploads/2020/12/INMACULADA39230.jpg;
20210042823,Vestido Margot , Beige Margot, S,4,156,260,https://inmaculada.shop/wp-content/uploads/2020/12/Pro-Capture-One-00744-scaled.jpg;
20210043023,Vestido Margot , Beige Margot, M,0,156,260,https://inmaculada.shop/wp-content/uploads/2020/12/Pro-Capture-One-00730-scaled.jpg;
20210062823,Vestido Margot , Lavanda Margot, S,0,156,260,https://inmaculada.shop/wp-content/uploads/2020/12/PS_4316-scaled.jpg;
20210063023,Vestido Margot , Lavanda Margot, M,0,156,260,https://inmaculada.shop/wp-content/uploads/2020/12/PS_4301-scaled.jpg;
20210112823,Vestido Margot , Verde agua Margot, S,2,156,260,https://inmaculada.shop/wp-content/uploads/2020/12/Margot-verde-agua-scaled.jpg;
20210113023,Vestido Margot , Verde agua Margot, M,0,156,260,https://inmaculada.shop/wp-content/uploads/2020/12/Margot-verde-agua-2-scaled.jpg;
20210043223,Vestido Margot , Beige Margot, L,0,156,260,https://inmaculada.shop/wp-content/uploads/2020/12/Pro-Capture-One-00730-scaled.jpg;
20210063223,Vestido Margot , Lavanda Margot, L,0,156,260,https://inmaculada.shop/wp-content/uploads/2020/12/PS_4301-scaled.jpg;
20210153223,Vestido Margot , Ocre Margot, L,0,156,260,https://inmaculada.shop/wp-content/uploads/2020/12/Pro-Capture-One-00689-scaled.jpg;
2021001269,Vestido Me’ssa , Perla,26,1,279.2,349,https://inmaculada.shop/wp-content/uploads/2021/06/F1A1556-scaled.jpg;
2021001289,Vestido Me’ssa , Perla,28,0,279.2,349,https://inmaculada.shop/wp-content/uploads/2021/06/F1A1556-scaled.jpg;
2021001309,Vestido Me’ssa , Perla,30,1,279.2,349,https://inmaculada.shop/wp-content/uploads/2021/06/F1A1556-scaled.jpg;
2021001329,Vestido Me’ssa , Perla,32,0,279.2,349,https://inmaculada.shop/wp-content/uploads/2021/06/F1A1556-scaled.jpg;
2021005269,Vestido Me’ssa , Rosa,26,3,279.2,349,https://inmaculada.shop/wp-content/uploads/2021/06/F1A1385-1-scaled.jpg;
2021005289,Vestido Me’ssa , Rosa,28,2,279.2,349,https://inmaculada.shop/wp-content/uploads/2021/06/F1A1385-1-scaled.jpg;
2021005309,Vestido Me’ssa , Rosa,30,0,279.2,349,https://inmaculada.shop/wp-content/uploads/2021/06/F1A1385-1-scaled.jpg;
2021005329,Vestido Me’ssa , Rosa,32,0,279.2,349,https://inmaculada.shop/wp-content/uploads/2021/06/F1A1385-1-scaled.jpg;
20200193032,Vestido MŽlite , Print Naranja, M,1,148,296,https://inmaculada.shop/wp-content/uploads/2020/02/inmaculada05b-min.jpg;
20200052832,Vestido MŽlite , Print rosa 2, S,5,148,296,https://inmaculada.shop/wp-content/uploads/2020/03/02-29-min-scaled.jpg;
20200192832,Vestido MŽlite , Print Naranja, S,4,148,296,https://inmaculada.shop/wp-content/uploads/2020/02/inmaculada05b-min.jpg;
20200053032,Vestido MŽlite , Print rosa 2, M,0,148,296,https://inmaculada.shop/wp-content/uploads/2020/03/02-29-min-scaled.jpg;
20200193232,Vestido MŽlite , Print Naranja, L,2,148,296,https://inmaculada.shop/wp-content/uploads/2020/02/inmaculada05b-min.jpg;
20200053232,Vestido MŽlite , Print rosa 2, L,0,148,296,https://inmaculada.shop/wp-content/uploads/2020/03/02-29-min-scaled.jpg;
20210012822,Vestido Zahira , Blanco tejido, S,2,149.4,249,https://inmaculada.shop/wp-content/uploads/2020/12/INMACULADA37942.jpg;
20210013022,Vestido Zahira , Blanco tejido, M,0,149.4,249,https://inmaculada.shop/wp-content/uploads/2020/12/INMACULADA37936.jpg;
20210112822,Vestido Zahira , Verde tejido, S,0,149.4,249,https://inmaculada.shop/wp-content/uploads/2020/12/INMACULADA38521.jpg;
20210113022,Vestido Zahira , Verde tejido, M,0,149.4,249,https://inmaculada.shop/wp-content/uploads/2020/12/INMACULADA38462.jpg;
2021005286,Top Victoria , Rosa, S,5,,159,https://inmaculada.shop/wp-content/uploads/2021/09/F1A3293-scaled.jpg;
2021005306,Top Victoria , Rosa, M,0,,159,https://inmaculada.shop/wp-content/uploads/2021/09/F1A3378-scaled.jpg;
2021013285,Vestido Alba , XS/S, Fucsia-Rojo,0,,187,https://inmaculada.shop/wp-content/uploads/2021/09/F1A3963-scaled.jpg;
2021013305,Vestido Alba , Fucsia-Rojo, M/L,0,,187,https://inmaculada.shop/wp-content/uploads/2021/09/F1A3967-scaled.jpg;
2021005285,Vestido Alba , XS/S, Rosa-Salm—n,0,,187,https://inmaculada.shop/wp-content/uploads/2021/09/F1A4026-scaled.jpg;
2021005305,Vestido Alba , Rosa-Salm—n, M/L,0,,187,https://inmaculada.shop/wp-content/uploads/2021/09/F1A4008-scaled.jpg;
2021011285,Vestido Alba , XS/S, Verde-Beige,6,,187,https://inmaculada.shop/wp-content/uploads/2021/09/F1A3910-scaled.jpg;
2021011305,Vestido Alba , Verde-Beige, M/L,0,,187,https://inmaculada.shop/wp-content/uploads/2021/09/F1A4464-scaled.jpg;
2021004286,Top Victoria , Beige, S,3,,159,https://inmaculada.shop/wp-content/uploads/2021/09/F1A3233-scaled.jpg;
2021004306,Top Victoria , Beige, M,5,,159,https://inmaculada.shop/wp-content/uploads/2021/09/F1A3268-scaled.jpg;
2021007264,Pantal—n çmbar , Marr—n,26,1,,182,https://inmaculada.shop/wp-content/uploads/2021/09/F1A3467-scaled.jpg;
2021007284,Pantal—n çmbar , Marr—n,28,4,,182,https://inmaculada.shop/wp-content/uploads/2021/09/F1A3491-scaled.jpg;
2021007304,Pantal—n çmbar , Marr—n,30,2,,182,https://inmaculada.shop/wp-content/uploads/2021/09/F1A3535-scaled.jpg;
2021007324,Pantal—n çmbar , Marr—n,32,2,,182,https://inmaculada.shop/wp-content/uploads/2021/09/F1A3453-scaled.jpg;
2021004264,Pantal—n çmbar , Marr—n claro,26,0,,182,https://inmaculada.shop/wp-content/uploads/2021/09/F1A3306-scaled.jpg;
2021004284,Pantal—n çmbar , Marr—n claro,28,2,,182,https://inmaculada.shop/wp-content/uploads/2021/09/F1A3317-scaled.jpg;
2021004304,Pantal—n çmbar , Marr—n claro,30,2,,182,https://inmaculada.shop/wp-content/uploads/2021/09/F1A3284-scaled.jpg;
2021004324,Pantal—n çmbar , Marr—n claro,32,0,,182,https://inmaculada.shop/wp-content/uploads/2021/09/F1A3274-scaled.jpg;
2021009264,Pantal—n çmbar , Plomo,26,0,,182,https://inmaculada.shop/wp-content/uploads/2021/09/F1A3417-scaled.jpg;
202103284,Pantal—n çmbar , Plomo,28,1,,182,https://inmaculada.shop/wp-content/uploads/2021/09/F1A3444-scaled.jpg;
2021009304,Pantal—n çmbar , Plomo,30,3,,182,https://inmaculada.shop/wp-content/uploads/2021/09/F1A3385-scaled.jpg;
2021009324,Pantal—n çmbar , Plomo,32,0,,182,https://inmaculada.shop/wp-content/uploads/2021/09/F1A3420-scaled.jpg;
2021011264,Pantal—n çmbar , Verde,26,0,,182,https://inmaculada.shop/wp-content/uploads/2021/09/F1A3254-scaled.jpg;
2021002264,Pantal—n çmbar , Negro,26,0,,182,https://inmaculada.shop/wp-content/uploads/2021/09/F1A3689-scaled.jpg;
2021002284,Pantal—n çmbar , Negro,28,3,,182,https://inmaculada.shop/wp-content/uploads/2021/09/F1A3722-scaled.jpg;
2021002304,Pantal—n çmbar , Negro,30,3,,182,https://inmaculada.shop/wp-content/uploads/2021/09/F1A3739-scaled.jpg;
2021002324,Pantal—n çmbar , Negro,32,0,,182,https://inmaculada.shop/wp-content/uploads/2021/09/F1A3704-scaled.jpg;
2021001303,TANK TOP (PACK X3) , Blanco/Gris/Negro, M/L,,,190,https://inmaculada.shop/wp-content/uploads/2021/09/F1A3779-scaled.jpg;
2021001283,TANK TOP (PACK X3) , Blanco/Gris/Negro, XS/S,,,190,https://inmaculada.shop/wp-content/uploads/2021/09/F1A3855-scaled.jpg;
2021007303,TANK TOP (PACK X3) , Marr—n/Celeste/Beige, M/L,,,190,;
2021007283,TANK TOP (PACK X3) , Marr—n/Celeste/Beige, XS/S,,,190,https://inmaculada.shop/wp-content/uploads/2021/09/F1A3638-scaled.jpg;
2021004282,Vestido Morgana , Beige, XS/S,2,,299,;
2021004302,Vestido Morgana , Beige, M/L,0,,299,;
2021107281,Top Lionela , Print Marr—n, S,8,,159,https://inmaculada.shop/wp-content/uploads/2021/10/PhotoRoom_20211110_161215.jpg;
2021109281,Top Lionela , Print Gris, S,1,,159,https://inmaculada.shop/wp-content/uploads/2021/09/F1A3416-scaled.jpg;
2021009301,Top Lionela , Plomo entero, M,1,,159,https://inmaculada.shop/wp-content/uploads/2021/10/PhotoRoom_20211110_161000.jpg;
2021009281,Top Lionela , Plomo entero, S,5,,159,https://inmaculada.shop/wp-content/uploads/2021/10/PhotoRoom_20211110_161000.jpg;
2021107301,Top Lionela , Print Marr—n, M,1,,159,https://inmaculada.shop/wp-content/uploads/2021/10/PhotoRoom_20211110_161215.jpg;
2021011284,Pantal—n çmbar , Verde,28,4,,182,;
2021011304,Pantal—n çmbar , Verde,30,2,,182,;
20210013222,Vestido Zahira , Blanco tejido, L,0,149.4,249,https://inmaculada.shop/wp-content/uploads/2020/12/INMACULADA37942.jpg;
2022005000,Fustán ,Nude,TU,2,,69,https://inmaculada.shop/wp-content/uploads/2021/12/WhatsApp-Image-2021-12-30-at-18.01.44.jpeg
2022112287,Conjunto Lúcumo,Print Celeste,XS/S,2,,319,https://inmaculada.shop/wp-content/uploads/2021/12/EmptyName-381-scaled.jpg
2022112307,Conjunto Lúcumo,Print Celeste,M/L,2,,319,https://inmaculada.shop/wp-content/uploads/2021/12/EmptyName-381-scaled.jpg
2022116287,Conjunto Lúcumo,Print Terracota,XS/S,2,,319,https://inmaculada.shop/wp-content/uploads/2021/12/EmptyName-260-scaled.jpg
2022116307,Conjunto Lúcumo,Print Terracota,M/L,2,,319,https://inmaculada.shop/wp-content/uploads/2021/12/EmptyName-260-scaled.jpg
2022011287,Conjunto Lúcumo,Verde,XS/S,2,,319,https://inmaculada.shop/wp-content/uploads/2021/12/image00008-scaled.jpeg
2022011287,Conjunto Lúcumo,Verde,M/L,2,,319,https://inmaculada.shop/wp-content/uploads/2021/12/image00008-scaled.jpeg
2022013307,Conjunto Lúcumo,Rojo,M/L,2,,319,https://inmaculada.shop/wp-content/uploads/2021/12/53F8F27C-9E2C-4770-8F33-A88D62F2545F-scaled.jpeg
2022013287,Conjunto Lúcumo,Rojo,XS/S,2,,319,https://inmaculada.shop/wp-content/uploads/2021/12/53F8F27C-9E2C-4770-8F33-A88D62F2545F-scaled.jpeg
2022013001,Top Lomas,Rojo,TU,10,,140,https://inmaculada.shop/wp-content/uploads/2021/12/EmptyName-88-1000x1499.jpg
2022004001,Top Lomas,Beige,TU,10,,140,https://inmaculada.shop/wp-content/uploads/2021/12/Top-lomas-beige-scaled.jpg
2022004002,Top Ismene,Beige,TU,4,,154,https://inmaculada.shop/wp-content/uploads/2021/12/EmptyName-429-1-scaled.jpg
2021005002,Top Ismene,Fucsia,TU,4,,154,https://inmaculada.shop/wp-content/uploads/2021/12/EmptyName-61-scaled.jpg
2022013002,Top Ismene,Rojo,TU,9,,154,https://inmaculada.shop/wp-content/uploads/2021/12/EmptyName-128-scaled.jpg
2022012283,Pantalón Natura,Celeste,28,6,,224,https://inmaculada.shop/wp-content/uploads/2021/12/EmptyName-174-scaled.jpg
2021012303,Pantalón Natura,Celeste,30,3,,224,https://inmaculada.shop/wp-content/uploads/2021/12/EmptyName-174-scaled.jpg
2022012323,Pantalón Natura,Celeste,32,2,,224,https://inmaculada.shop/wp-content/uploads/2021/12/EmptyName-174-scaled.jpg
2022104283,Pantalón Natura,Print Beige,28,5,,224,https://inmaculada.shop/wp-content/uploads/2021/12/EmptyName-429-scaled.jpg
20221104303,Pantalón Natura,Print Beige,30,4,,224,https://inmaculada.shop/wp-content/uploads/2021/12/EmptyName-429-scaled.jpg
20221104323,Pantalón Natura,Print Beige,32,2,,224,https://inmaculada.shop/wp-content/uploads/2021/12/EmptyName-429-scaled.jpg
2022116283,Pantalón Natura,Print Terracota,28,6,,224,https://inmaculada.shop/wp-content/uploads/2021/12/image00027-scaled.jpeg
2022116303,Pantalón Natura,Print Terracota,30,4,,224,https://inmaculada.shop/wp-content/uploads/2021/12/image00027-scaled.jpeg
2022116323,Pantalón Natura,Print Terracota,32,2,,224,https://inmaculada.shop/wp-content/uploads/2021/12/image00027-scaled.jpeg
2022013283,Pantalón Natura,Rojo,28,6,,224,https://inmaculada.shop/wp-content/uploads/2021/12/EmptyName-6-scaled.jpg
2022013303,Pantalón Natura,Rojo,30,2,,224,https://inmaculada.shop/wp-content/uploads/2021/12/EmptyName-6-scaled.jpg
2022013323,Pantalón Natura,Rojo,32,1,,224,https://inmaculada.shop/wp-content/uploads/2021/12/EmptyName-6-scaled.jpg
2022004286,Top Amarillis,Beige,S,6,,165,https://inmaculada.shop/wp-content/uploads/2021/12/EmptyName-357-scaled.jpg
2022004306,Top Amarillis,Beige,M,3,,165,https://inmaculada.shop/wp-content/uploads/2021/12/EmptyName-357-scaled.jpg
2022004326,Top Amarillis,Beige,L,2,,165,https://inmaculada.shop/wp-content/uploads/2021/12/EmptyName-357-scaled.jpg
2022112286,Top Amarillis,Print Celeste,S,6,,165,https://inmaculada.shop/wp-content/uploads/2021/12/EmptyName-217-1-scaled.jpg
2022112306,Top Amarillis,Print Celeste,M,4,,165,https://inmaculada.shop/wp-content/uploads/2021/12/EmptyName-217-1-scaled.jpg
2022112326,Top Amarillis,Print Celeste,L,2,,165,https://inmaculada.shop/wp-content/uploads/2021/12/EmptyName-217-1-scaled.jpg
2022116286,Top Amarillis,Print Terracota,S,6,,165,https://inmaculada.shop/wp-content/uploads/2021/12/EmptyName-365-scaled.jpg
2022116306,Top Amarillis,Print Terracota,M,4,,165,https://inmaculada.shop/wp-content/uploads/2021/12/EmptyName-365-scaled.jpg
2022116326,Top Amarillis,Print Terracota,L,2,,165,https://inmaculada.shop/wp-content/uploads/2021/12/EmptyName-365-scaled.jpg
2022013286,Top Amarillis,Rojo,S,6,,165,https://inmaculada.shop/wp-content/uploads/2021/12/EmptyName-112-scaled.jpg
2022013306,Top Amarillis,Rojo,M,4,,165,https://inmaculada.shop/wp-content/uploads/2021/12/EmptyName-112-scaled.jpg
2022013326,Top Amarillis,Rojo,L,2,,165,https://inmaculada.shop/wp-content/uploads/2021/12/EmptyName-112-scaled.jpg
2022004284,Falda Amarillis,Beige,S,6,,208,https://inmaculada.shop/wp-content/uploads/2021/12/EmptyName-334-scaled.jpg
2022004304,Falda Amarillis,Beige,M,3,,208,https://inmaculada.shop/wp-content/uploads/2021/12/EmptyName-334-scaled.jpg
2022004324,Falda Amarillis,Beige,L,2,,208,https://inmaculada.shop/wp-content/uploads/2021/12/EmptyName-334-scaled.jpg
2022112284,Falda Amarillis,Print Celeste,S,4,,208,https://inmaculada.shop/wp-content/uploads/2021/12/EmptyName-217-1-scaled.jpg
2022112304,Falda Amarillis,Print Celeste,M,4,,208,https://inmaculada.shop/wp-content/uploads/2021/12/EmptyName-217-1-scaled.jpg
2022112324,Falda Amarillis,Print Celeste,L,2,,208,https://inmaculada.shop/wp-content/uploads/2021/12/EmptyName-217-1-scaled.jpg
2022116284,Falda Amarillis,Print Terracota,S,6,,208,https://inmaculada.shop/wp-content/uploads/2021/12/EmptyName-376-scaled.jpg
2022116304,Falda Amarillis,Print Terracota,M,4,,208,https://inmaculada.shop/wp-content/uploads/2021/12/EmptyName-376-scaled.jpg
2022116324,Falda Amarillis,Print Terracota,L,2,,208,https://inmaculada.shop/wp-content/uploads/2021/12/EmptyName-376-scaled.jpg
2022013284,Falda Amarillis,Rojo,S,6,,208,https://inmaculada.shop/wp-content/uploads/2021/12/EmptyName-101-scaled.jpg
2022013304,Falda Amarillis,Rojo,M,4,,208,https://inmaculada.shop/wp-content/uploads/2021/12/EmptyName-101-scaled.jpg
2022013324,Falda Amarillis,Rojo,L,2,,208,https://inmaculada.shop/wp-content/uploads/2021/12/EmptyName-101-scaled.jpg
2022104000,Maxi Kimono Amancaes,Print Beige,TU,20,,290,https://inmaculada.shop/wp-content/uploads/2021/12/image00024-scaled.jpeg
2022112000,Maxi Kimono Amancaes,Print Celeste,TU,18,,290,https://inmaculada.shop/wp-content/uploads/2021/12/EmptyName-151-scaled.jpg
2022116000,Maxi Kimono Amancaes,Print Terracota,TU,19,,290,https://inmaculada.shop/wp-content/uploads/2021/12/EmptyName-207-scaled.jpg
2022104309,Vestido Kimono Chabuca,Print Beige,M/L,5,,250,https://inmaculada.shop/wp-content/uploads/2021/12/EmptyName-24-scaled.jpg
2022104289,Vestido Kimono Chabuca,Print Beige,XS/S,6,,250,https://inmaculada.shop/wp-content/uploads/2021/12/EmptyName-24-scaled.jpg
2022112309,Vestido Kimono Chabuca,Print Celeste,M/L,3,,250,https://inmaculada.shop/wp-content/uploads/2021/12/image00002-scaled.jpeg
2022112289,Vestido Kimono Chabuca,Print Celeste,XS/S,7,,250,https://inmaculada.shop/wp-content/uploads/2021/12/image00002-scaled.jpeg
2022116309,Vestido Kimono Chabuca,Print Terracota,M/L,5,,250,
2022116289,Vestido Kimono Chabuca,Print Terracota,XS/S,7,,250,
2022104288,Top Lima,Print Beige,S,5,,130,https://inmaculada.shop/wp-content/uploads/2021/12/EmptyName-336-1-scaled.jpg
2022104308,Top Lima,Print Beige,M,4,,130,https://inmaculada.shop/wp-content/uploads/2021/12/EmptyName-336-1-scaled.jpg
2022104328,Top Lima,Print Beige,L,2,,130,https://inmaculada.shop/wp-content/uploads/2021/12/EmptyName-336-1-scaled.jpg
2022112288,Top Lima,Print Celeste,S,4,,130,https://inmaculada.shop/wp-content/uploads/2021/12/EmptyName-160-scaled.jpg
2022112308,Top Lima,Print Celeste,M,2,,130,https://inmaculada.shop/wp-content/uploads/2021/12/EmptyName-160-scaled.jpg
2022112328,Top Lima,Print Celeste,L,2,,130,https://inmaculada.shop/wp-content/uploads/2021/12/EmptyName-160-scaled.jpg
2022013288,Top Lima,Rojo,S,6,,130,https://inmaculada.shop/wp-content/uploads/2021/12/EmptyName-71-scaled.jpg
2022013308,Top Lima,Rojo,M,4,,130,https://inmaculada.shop/wp-content/uploads/2021/12/EmptyName-71-scaled.jpg
2022013328,Top Lima,Rojo,L,2,,130,https://inmaculada.shop/wp-content/uploads/2021/12/EmptyName-71-scaled.jpg
2022016288,Top Lima,Terracota,S,6,,130,https://inmaculada.shop/wp-content/uploads/2021/12/image00027-scaled.jpeg
2022016308,Top Lima,Terracota,M,4,,130,https://inmaculada.shop/wp-content/uploads/2021/12/image00027-scaled.jpeg
2022016328,Top Lima,Terracota,L,2,,130,https://inmaculada.shop/wp-content/uploads/2021/12/image00027-scaled.jpeg
