﻿ID,Tipo,SKU,Nombre,Publicado,"¿Está destacado?","Visibilidad en el catálogo","Descripción corta",Descripción,"Día en que empieza el precio rebajado","Día en que termina el precio rebajado","Estado del impuesto","Clase de impuesto","¿En inventario?",Inventario,"Cantidad de bajo inventario","¿Permitir reservas de productos agotados?","¿Vendido individualmente?","Peso (kg)","Longitud (cm)","Anchura (cm)","Altura (cm)","¿Permitir valoraciones de clientes?","Nota de compra","Precio rebajado","Precio normal",Categorías,Etiquetas,"Clase de envío",Imágenes,"Límite de descargas","Días de caducidad de la descarga",Superior,"Productos agrupados","Ventas dirigidas","Ventas cruzadas","URL externa","Texto del botón",Posición,"Nombre del atributo 1","Valor(es) del atributo 1","Atributo visible 1","Atributo global 1","Nombre del atributo 2","Valor(es) del atributo 2","Atributo visible 2","Atributo global 2","Meta: wpa_wcpb","Meta: _wpml_word_count","Meta: _wpml_media_featured","Meta: _wpml_media_duplicate","Meta: _wpml_location_migration_done","Meta: _wp_old_date","Meta: _peru_price_method","Meta: _peru_regular_price","Meta: _peru_sale_price","Meta: _peru_price","Meta: _peru_sale_price_dates","Meta: _peru_sale_price_dates_from","Meta: _peru_sale_price_dates_to","Meta: _welcome_popup","Meta: _et_pb_use_builder","Meta: _et_pb_old_content","Meta: _woocs_price_geo_countries","Meta: _woocs_regular_price_geo","Meta: _woocs_sale_price_geo","Meta: _woocs_regular_price_PEN","Meta: _woocs_sale_price_PEN","Meta: _rightpress_prices","Meta: _internacional_price","Meta: _internacional_regular_price","Meta: _internacional_sale_price","Meta: _internacional_price_method","Meta: _internacional_sale_price_dates","Meta: _internacional_sale_price_dates_from","Meta: _internacional_sale_price_dates_to","Meta: _yoast_wpseo_estimated-reading-time-minutes"
9316,simple,0005,"Top Mera",1,0,visible,"CROP -TOP CON  DETALLE DE CRUCE FRONTAL Y TRASERO.\n<p style=""margin: 0cm; margin-bottom: .0001pt;""><strong>Medidas:</strong></p>\n<p style=""margin: 0cm; margin-bottom: .0001pt;"">Busto: 74 cm</p>\n<p style=""margin: 0cm; margin-bottom: .0001pt;"">Largo: 37 cm</p>\n<p style=""margin: 0cm; margin-bottom: .0001pt;"">Base: 58 cm</p>",,,,taxable,,0,0,,0,0,,,,,0,,45,60,"Tops, Verano",,,https://inmaculada.shop/wp-content/uploads/2020/06/InmaculadaSS20_0010-scaled.jpg,,,,,"0049, 0040, 0048, 0042",,,,0,Color,"Azul marino",1,1,Talla,S,1,1,,"{""total"":24,""to_translate"":{""en"":24}}",1,1,1,2020-06-11,manual,149,119.2,119.2,default,,,default,,,,,,149,119.2,"{""a333da78"":{""s"":{""1629b04c"":{""p"":""119.2"",""t"":1637633392}},""r"":{""f760ddc5"":{""p"":""149"",""t"":1637633392}},""p"":{""1629b04c"":{""p"":""119.2"",""t"":1637633392}}}}",12.85695,17.1426,12.85695,,,,,
14667,simple,,"Prueba dextra",1,0,hidden,,,,,taxable,,1,,,0,0,,,,,0,,,1,Accesorios,,,,,,,,,,,,0,,,,,,,,,,"{""total"":5,""to_translate"":{""en"":5}}",1,1,1,,exchange_rate,1,,1,default,,,default,,,,,,,,"{""ab15bf94"":{""s"":{""5e94195d"":{""p"":"""",""t"":1637026299}},""p"":{""547353e5"":{""p"":1,""t"":1637026299}},""r"":{""547353e5"":{""p"":1,""t"":1637026299}}}}",0.28571,0.28571,,exchange_rate,default,,,
